Modeling_source_codes_PCIM2025/data/Idiode-Vds/Vgs=0.00/Vdd=9.50_ALL.csv

Model,MSO56B
Channel,CH2,,Channel,CH3,,Channel,CH4,,Channel,CH5
Label,,,Label,,,Label,,,Label,
Waveform Type,ANALOG,,Waveform Type,ANALOG,,Waveform Type,ANALOG,,Waveform Type,ANALOG
Horizontal Units,s,,Horizontal Units,s,,Horizontal Units,s,,Horizontal Units,s
Sample Interval,3.20000000e-10,,Sample Interval,3.20000000e-10,,Sample Interval,3.20000000e-10,,Sample Interval,3.20000000e-10
Record Length,12500,,Record Length,12500,,Record Length,12500,,Record Length,12500
Zero Index,1874.75000000,,Zero Index,1874.75000000,,Zero Index,1874.75000000,,Zero Index,1874.75000000
Vertical Units,V,,Vertical Units,V,,Vertical Units,V,,Vertical Units,A
,,,,,,,,,,
ANALOG_Thumbnail,,,ANALOG_Thumbnail,,,ANALOG_Thumbnail,,,ANALOG_Thumbnail,
yOffset,0.000000,,yOffset,0.000000,,yOffset,0.000000,,yOffset,0.000000
yPosition,-3.000000,,yPosition,-3.000000,,yPosition,-3.000000,,yPosition,-3.000000

Labels,,,,
TIME,CH2,CH3,CH4,CH5
-5.99920000e-07,7.50000000e-02,9.65937500e+00,-8.75000000e-03,-1.56250000e-03
-5.99600000e-07,1.75000000e-01,9.69687500e+00,-2.18750000e-02,3.12500000e-03
-5.99280000e-07,0.00000000e+00,9.68437500e+00,-1.25000000e-02,-3.04687500e-02
-5.98960000e-07,5.00000000e-02,9.57187500e+00,-3.06250000e-02,-5.93750000e-02
-5.98640000e-07,3.75000000e-02,9.67187500e+00,-3.75000000e-03,-1.56250000e-02
-5.98320000e-07,7.50000000e-02,9.69687500e+00,-1.37500000e-02,-1.01562500e-02
-5.98000000e-07,2.25000000e-01,9.50937500e+00,-9.37500000e-03,4.06250000e-02
-5.97680000e-07,1.37500000e-01,9.55937500e+00,-3.37500000e-02,-4.68750000e-03
-5.97360000e-07,1.12500000e-01,9.65937500e+00,-1.93750000e-02,-7.57812500e-02
-5.97040000e-07,2.00000000e-01,9.63437500e+00,-1.00000000e-02,-6.25000000e-03
-5.96720000e-07,0.00000000e+00,9.62187500e+00,-7.50000000e-03,-3.35937500e-02
-5.96400000e-07,6.25000000e-02,9.73437500e+00,-4.81250000e-02,6.95312500e-02
-5.96080000e-07,2.12500000e-01,9.50937500e+00,-9.37500000e-03,9.92187500e-02
-5.95760000e-07,-5.00000000e-02,9.67187500e+00,-2.50000000e-02,-1.79687500e-02
-5.95440000e-07,1.00000000e-01,9.63437500e+00,-1.25000000e-03,-5.54687500e-02
-5.95120000e-07,1.50000000e-01,9.49687500e+00,-4.56250000e-02,-1.79687500e-02
-5.94800000e-07,2.50000000e-02,9.59687500e+00,-2.81250000e-02,-3.04687500e-02
-5.94480000e-07,1.00000000e-01,9.57187500e+00,-2.87500000e-02,-5.46875000e-03
-5.94160000e-07,1.37500000e-01,9.67187500e+00,-1.93750000e-02,-2.81250000e-02
-5.93840000e-07,2.12500000e-01,9.60937500e+00,-2.62500000e-02,-7.10937500e-02
-5.93520000e-07,6.25000000e-02,9.60937500e+00,-6.87500000e-03,-6.25000000e-02
-5.93200000e-07,6.25000000e-02,9.57187500e+00,-1.93750000e-02,-7.26562500e-02
-5.92880000e-07,7.50000000e-02,9.60937500e+00,-4.62500000e-02,-7.42187500e-02
-5.92560000e-07,1.25000000e-02,9.60937500e+00,-3.75000000e-02,-9.06250000e-02
-5.92240000e-07,6.25000000e-02,9.59687500e+00,-3.31250000e-02,-6.48437500e-02
-5.91920000e-07,5.00000000e-02,9.53437500e+00,-2.50000000e-02,-8.67187500e-02
-5.91600000e-07,7.50000000e-02,9.70937500e+00,-1.50000000e-02,-1.29687500e-01
-5.91280000e-07,1.75000000e-01,9.63437500e+00,-4.81250000e-02,-9.29687500e-02
-5.90960000e-07,1.25000000e-01,9.62187500e+00,-3.75000000e-03,-5.15625000e-02
-5.90640000e-07,1.62500000e-01,9.74687500e+00,-6.87500000e-03,-2.81250000e-02
-5.90320000e-07,7.50000000e-02,9.60937500e+00,-6.87500000e-03,-2.50000000e-02
-5.90000000e-07,1.12500000e-01,9.57187500e+00,-2.18750000e-02,2.03125000e-02
-5.89680000e-07,6.25000000e-02,9.60937500e+00,-2.00000000e-02,-5.78125000e-02
-5.89360000e-07,-2.50000000e-02,9.67187500e+00,-4.12500000e-02,-1.32812500e-01
-5.89040000e-07,6.25000000e-02,9.58437500e+00,-3.06250000e-02,-6.87500000e-02
-5.88720000e-07,7.50000000e-02,9.62187500e+00,-4.75000000e-02,-3.04687500e-02
-5.88400000e-07,1.12500000e-01,9.74687500e+00,-8.75000000e-03,-3.12500000e-03
-5.88080000e-07,3.75000000e-02,9.70937500e+00,-4.37500000e-03,-4.45312500e-02
-5.87760000e-07,0.00000000e+00,9.60937500e+00,-3.06250000e-02,-6.64062500e-02
-5.87440000e-07,8.75000000e-02,9.49687500e+00,-2.56250000e-02,-5.23437500e-02
-5.87120000e-07,6.25000000e-02,9.64687500e+00,-3.81250000e-02,-2.34375000e-03
-5.86800000e-07,1.00000000e-01,9.73437500e+00,-1.68750000e-02,-6.71875000e-02
-5.86480000e-07,2.12500000e-01,9.62187500e+00,-1.43750000e-02,-7.57812500e-02
-5.86160000e-07,1.62500000e-01,9.59687500e+00,2.06250000e-02,-4.68750000e-02
-5.85840000e-07,2.12500000e-01,9.47187500e+00,-9.37500000e-03,-6.87500000e-02
-5.85520000e-07,6.25000000e-02,9.53437500e+00,-2.00000000e-02,-5.23437500e-02
-5.85200000e-07,-5.00000000e-02,9.58437500e+00,-3.87500000e-02,4.76562500e-02
-5.84880000e-07,1.25000000e-01,9.59687500e+00,-4.00000000e-02,6.79687500e-02
-5.84560000e-07,-1.25000000e-02,9.62187500e+00,-1.25000000e-03,-9.53125000e-02
-5.84240000e-07,1.62500000e-01,9.57187500e+00,-6.25000000e-03,-1.78125000e-01
-5.83920000e-07,1.50000000e-01,9.69687500e+00,-2.18750000e-02,-8.67187500e-02
-5.83600000e-07,-1.25000000e-02,9.55937500e+00,-3.12500000e-02,7.81250000e-04
-5.83280000e-07,0.00000000e+00,9.67187500e+00,-3.87500000e-02,-1.95312500e-02
-5.82960000e-07,1.00000000e-01,9.54687500e+00,-2.25000000e-02,-3.82812500e-02
-5.82640000e-07,1.37500000e-01,9.55937500e+00,-3.62500000e-02,-1.71875000e-02
-5.82320000e-07,1.25000000e-01,9.44687500e+00,-3.50000000e-02,-4.68750000e-02
-5.82000000e-07,1.37500000e-01,9.59687500e+00,1.37500000e-02,-7.96875000e-02
-5.81680000e-07,6.25000000e-02,9.58437500e+00,-4.31250000e-02,-8.90625000e-02
-5.81360000e-07,1.25000000e-02,9.70937500e+00,-1.18750000e-02,-9.60937500e-02
-5.81040000e-07,7.50000000e-02,9.64687500e+00,-2.31250000e-02,-1.02343750e-01
-5.80720000e-07,3.75000000e-02,9.67187500e+00,-5.87500000e-02,1.48437500e-02
-5.80400000e-07,1.50000000e-01,9.68437500e+00,-3.31250000e-02,-1.17187500e-02
-5.80080000e-07,3.75000000e-02,9.70937500e+00,-3.81250000e-02,-1.25000000e-02
-5.79760000e-07,6.25000000e-02,9.52187500e+00,-3.50000000e-02,1.32812500e-02
-5.79440000e-07,1.87500000e-01,9.54687500e+00,8.75000000e-03,-1.03906250e-01
-5.79120000e-07,2.00000000e-01,9.57187500e+00,-1.62500000e-02,-7.89062500e-02
-5.78800000e-07,7.50000000e-02,9.60937500e+00,-2.87500000e-02,-7.10937500e-02
-5.78480000e-07,8.75000000e-02,9.69687500e+00,-3.12500000e-02,-4.21875000e-02
-5.78160000e-07,1.00000000e-01,9.48437500e+00,-2.81250000e-02,-1.32812500e-02
-5.77840000e-07,1.12500000e-01,9.59687500e+00,2.37500000e-02,-8.43750000e-02
-5.77520000e-07,5.00000000e-02,9.65937500e+00,-1.93750000e-02,-5.62500000e-02
-5.77200000e-07,1.37500000e-01,9.48437500e+00,-3.12500000e-02,-1.44531250e-01
-5.76880000e-07,-1.25000000e-02,9.54687500e+00,-1.62500000e-02,-1.41406250e-01
-5.76560000e-07,1.25000000e-01,9.55937500e+00,-3.62500000e-02,-2.96875000e-02
-5.76240000e-07,6.25000000e-02,9.64687500e+00,-6.87500000e-03,-1.03906250e-01
-5.75920000e-07,1.75000000e-01,9.62187500e+00,-2.31250000e-02,-1.96875000e-01
-5.75600000e-07,1.37500000e-01,9.60937500e+00,-2.81250000e-02,-7.96875000e-02
-5.75280000e-07,1.12500000e-01,9.68437500e+00,-3.75000000e-03,-4.53125000e-02
-5.74960000e-07,5.00000000e-02,9.57187500e+00,-1.62500000e-02,7.81250000e-03
-5.74640000e-07,-1.25000000e-02,9.43437500e+00,1.81250000e-02,2.10937500e-02
-5.74320000e-07,2.50000000e-02,9.64687500e+00,-1.00000000e-02,-8.35937500e-02
-5.74000000e-07,2.00000000e-01,9.63437500e+00,-1.93750000e-02,-5.39062500e-02
-5.73680000e-07,0.00000000e+00,9.64687500e+00,-2.00000000e-02,-2.34375000e-02
-5.73360000e-07,-1.25000000e-02,9.58437500e+00,-4.87500000e-02,-3.51562500e-02
-5.73040000e-07,0.00000000e+00,9.68437500e+00,-4.25000000e-02,-2.10937500e-02
-5.72720000e-07,1.00000000e-01,9.57187500e+00,-1.37500000e-02,-1.00781250e-01
-5.72400000e-07,5.00000000e-02,9.52187500e+00,-2.12500000e-02,-1.25781250e-01
-5.72080000e-07,3.75000000e-02,9.50937500e+00,-1.93750000e-02,-5.31250000e-02
-5.71760000e-07,0.00000000e+00,9.68437500e+00,5.62500000e-03,-5.78125000e-02
-5.71440000e-07,6.25000000e-02,9.57187500e+00,-2.56250000e-02,-8.43750000e-02
-5.71120000e-07,-6.25000000e-02,9.72187500e+00,-1.25000000e-02,-1.19531250e-01
-5.70800000e-07,2.50000000e-02,9.74687500e+00,-3.56250000e-02,-3.51562500e-02
-5.70480000e-07,7.50000000e-02,9.55937500e+00,1.25000000e-03,-1.32812500e-02
-5.70160000e-07,0.00000000e+00,9.64687500e+00,-1.18750000e-02,-3.51562500e-02
-5.69840000e-07,-1.25000000e-01,9.62187500e+00,-4.56250000e-02,1.87500000e-02
-5.69520000e-07,1.25000000e-01,9.37187500e+00,-8.75000000e-03,-3.28125000e-02
-5.69200000e-07,1.25000000e-01,9.52187500e+00,5.62500000e-03,-7.81250000e-02
-5.68880000e-07,2.12500000e-01,9.69687500e+00,-4.62500000e-02,-3.90625000e-02
-5.68560000e-07,1.87500000e-01,9.69687500e+00,-6.87500000e-03,-6.79687500e-02
-5.68240000e-07,1.25000000e-02,9.64687500e+00,-4.87500000e-02,-5.39062500e-02
-5.67920000e-07,1.25000000e-01,9.59687500e+00,1.25000000e-03,-9.21875000e-02
-5.67600000e-07,1.25000000e-02,9.57187500e+00,-7.50000000e-03,-1.13281250e-01
-5.67280000e-07,-1.25000000e-02,9.64687500e+00,-2.81250000e-02,-6.09375000e-02
-5.66960000e-07,1.37500000e-01,9.68437500e+00,-1.87500000e-02,-2.34375000e-03
-5.66640000e-07,2.00000000e-01,9.53437500e+00,-1.68750000e-02,1.48437500e-02
-5.66320000e-07,-3.75000000e-02,9.45937500e+00,-1.43750000e-02,-2.03125000e-02
-5.66000000e-07,0.00000000e+00,9.67187500e+00,2.56250000e-02,-3.90625000e-03
-5.65680000e-07,8.75000000e-02,9.60937500e+00,-2.00000000e-02,-2.34375000e-03
-5.65360000e-07,0.00000000e+00,9.65937500e+00,-4.37500000e-03,1.71875000e-02
-5.65040000e-07,6.25000000e-02,9.63437500e+00,-1.75000000e-02,7.18750000e-02
-5.64720000e-07,1.25000000e-01,9.67187500e+00,-4.37500000e-02,6.40625000e-02
-5.64400000e-07,7.50000000e-02,9.65937500e+00,-3.50000000e-02,9.37500000e-03
-5.64080000e-07,1.62500000e-01,9.53437500e+00,-2.56250000e-02,-6.09375000e-02
-5.63760000e-07,8.75000000e-02,9.62187500e+00,-4.56250000e-02,-1.01562500e-01
-5.63440000e-07,-5.00000000e-02,9.77187500e+00,-2.25000000e-02,-2.81250000e-02
-5.63120000e-07,-1.25000000e-02,9.68437500e+00,-2.87500000e-02,6.40625000e-02
-5.62800000e-07,0.00000000e+00,9.60937500e+00,-3.75000000e-02,-1.48437500e-02
-5.62480000e-07,0.00000000e+00,9.58437500e+00,-1.62500000e-02,-1.08593750e-01
-5.62160000e-07,8.75000000e-02,9.62187500e+00,-1.62500000e-02,-1.03906250e-01
-5.61840000e-07,2.37500000e-01,9.54687500e+00,-2.87500000e-02,-4.06250000e-02
-5.61520000e-07,8.75000000e-02,9.52187500e+00,-1.18750000e-02,-1.56250000e-03
-5.61200000e-07,5.00000000e-02,9.67187500e+00,5.00000000e-03,8.59375000e-03
-5.60880000e-07,7.50000000e-02,9.73437500e+00,6.25000000e-04,-8.12500000e-02
-5.60560000e-07,3.75000000e-02,9.67187500e+00,-3.12500000e-02,-9.29687500e-02
-5.60240000e-07,1.00000000e-01,9.65937500e+00,-4.12500000e-02,-1.30468750e-01
-5.59920000e-07,1.62500000e-01,9.58437500e+00,-2.25000000e-02,-6.25000000e-02
-5.59600000e-07,0.00000000e+00,9.75937500e+00,-3.81250000e-02,4.60937500e-02
-5.59280000e-07,1.12500000e-01,9.54687500e+00,-1.93750000e-02,6.17187500e-02
-5.58960000e-07,3.75000000e-02,9.69687500e+00,-3.56250000e-02,4.14062500e-02
-5.58640000e-07,1.00000000e-01,9.65937500e+00,-5.81250000e-02,6.25000000e-03
-5.58320000e-07,8.75000000e-02,9.68437500e+00,-1.37500000e-02,4.68750000e-03
-5.58000000e-07,8.75000000e-02,9.69687500e+00,-2.87500000e-02,-1.40625000e-02
-5.57680000e-07,1.00000000e-01,9.60937500e+00,-1.93750000e-02,-2.10937500e-02
-5.57360000e-07,5.00000000e-02,9.53437500e+00,-1.50000000e-02,-7.34375000e-02
-5.57040000e-07,3.75000000e-02,9.64687500e+00,-1.18750000e-02,-1.47656250e-01
-5.56720000e-07,2.00000000e-01,9.49687500e+00,-1.68750000e-02,-9.92187500e-02
-5.56400000e-07,1.62500000e-01,9.52187500e+00,3.12500000e-03,-1.17187500e-02
-5.56080000e-07,1.12500000e-01,9.45937500e+00,-4.87500000e-02,-4.60937500e-02
-5.55760000e-07,6.25000000e-02,9.65937500e+00,-2.00000000e-02,-8.04687500e-02
-5.55440000e-07,7.50000000e-02,9.59687500e+00,-3.37500000e-02,-2.34375000e-03
-5.55120000e-07,1.50000000e-01,9.57187500e+00,1.12500000e-02,7.65625000e-02
-5.54800000e-07,1.37500000e-01,9.72187500e+00,-9.37500000e-03,2.42187500e-02
-5.54480000e-07,8.75000000e-02,9.55937500e+00,-3.37500000e-02,-8.75000000e-02
-5.54160000e-07,1.25000000e-01,9.55937500e+00,-2.81250000e-02,-4.68750000e-02
-5.53840000e-07,1.87500000e-01,9.65937500e+00,-6.25000000e-03,1.09375000e-02
-5.53520000e-07,7.50000000e-02,9.69687500e+00,-1.00000000e-02,-7.03125000e-03
-5.53200000e-07,8.75000000e-02,9.58437500e+00,-5.62500000e-02,-1.07812500e-01
-5.52880000e-07,1.25000000e-02,9.54687500e+00,-3.25000000e-02,-8.28125000e-02
-5.52560000e-07,1.00000000e-01,9.59687500e+00,-3.31250000e-02,-2.89062500e-02
-5.52240000e-07,2.37500000e-01,9.65937500e+00,-1.37500000e-02,-3.75000000e-02
-5.51920000e-07,6.25000000e-02,9.62187500e+00,-3.18750000e-02,-2.50000000e-02
-5.51600000e-07,5.00000000e-02,9.54687500e+00,-4.62500000e-02,2.57812500e-02
-5.51280000e-07,6.25000000e-02,9.60937500e+00,6.25000000e-04,-4.21875000e-02
-5.50960000e-07,1.75000000e-01,9.63437500e+00,-3.37500000e-02,-1.42968750e-01
-5.50640000e-07,1.00000000e-01,9.74687500e+00,-2.00000000e-02,-1.95312500e-01
-5.50320000e-07,1.87500000e-01,9.59687500e+00,-3.18750000e-02,-1.20312500e-01
-5.50000000e-07,-7.50000000e-02,9.68437500e+00,-4.56250000e-02,-1.21875000e-01
-5.49680000e-07,1.12500000e-01,9.69687500e+00,-5.31250000e-02,-8.43750000e-02
-5.49360000e-07,2.12500000e-01,9.57187500e+00,-3.00000000e-02,3.04687500e-02
-5.49040000e-07,1.00000000e-01,9.65937500e+00,1.25000000e-03,-2.10937500e-02
-5.48720000e-07,1.50000000e-01,9.62187500e+00,-3.31250000e-02,-1.42968750e-01
-5.48400000e-07,3.37500000e-01,9.55937500e+00,-4.87500000e-02,-5.23437500e-02
-5.48080000e-07,8.75000000e-02,9.74687500e+00,-5.87500000e-02,4.53125000e-02
-5.47760000e-07,1.12500000e-01,9.57187500e+00,-1.87500000e-02,-4.45312500e-02
-5.47440000e-07,2.50000000e-02,9.49687500e+00,-1.50000000e-02,-1.05468750e-01
-5.47120000e-07,1.25000000e-01,9.67187500e+00,-1.50000000e-02,-6.87500000e-02
-5.46800000e-07,5.00000000e-02,9.70937500e+00,-3.37500000e-02,-6.95312500e-02
-5.46480000e-07,1.37500000e-01,9.60937500e+00,-2.12500000e-02,-7.81250000e-02
-5.46160000e-07,7.50000000e-02,9.57187500e+00,-6.87500000e-03,-6.95312500e-02
-5.45840000e-07,8.75000000e-02,9.62187500e+00,-4.37500000e-03,-4.45312500e-02
-5.45520000e-07,-3.75000000e-02,9.69687500e+00,-2.25000000e-02,-4.68750000e-02
-5.45200000e-07,1.50000000e-01,9.69687500e+00,-5.43750000e-02,-8.35937500e-02
-5.44880000e-07,8.75000000e-02,9.57187500e+00,-5.56250000e-02,-4.60937500e-02
-5.44560000e-07,1.62500000e-01,9.54687500e+00,-1.12500000e-02,2.03125000e-02
-5.44240000e-07,-2.50000000e-02,9.57187500e+00,-3.43750000e-02,1.17187500e-02
-5.43920000e-07,1.25000000e-02,9.53437500e+00,-1.18750000e-02,-6.25000000e-02
-5.43600000e-07,2.62500000e-01,9.63437500e+00,-2.68750000e-02,-1.63281250e-01
-5.43280000e-07,1.25000000e-01,9.62187500e+00,-3.31250000e-02,-4.76562500e-02
-5.42960000e-07,1.25000000e-01,9.64687500e+00,1.06250000e-02,-1.01562500e-02
-5.42640000e-07,7.50000000e-02,9.72187500e+00,-8.75000000e-03,6.25000000e-03
-5.42320000e-07,1.00000000e-01,9.70937500e+00,-1.68750000e-02,1.25000000e-02
-5.42000000e-07,5.00000000e-02,9.62187500e+00,1.31250000e-02,-1.48437500e-02
-5.41680000e-07,1.25000000e-01,9.53437500e+00,-6.87500000e-03,1.09375000e-02
-5.41360000e-07,5.00000000e-02,9.60937500e+00,-3.06250000e-02,-2.34375000e-03
-5.41040000e-07,1.37500000e-01,9.63437500e+00,-2.25000000e-02,-1.13281250e-01
-5.40720000e-07,1.00000000e-01,9.63437500e+00,-4.37500000e-02,-1.46093750e-01
-5.40400000e-07,1.37500000e-01,9.63437500e+00,-1.37500000e-02,-1.12500000e-01
-5.40080000e-07,1.37500000e-01,9.49687500e+00,-1.68750000e-02,-9.84375000e-02
-5.39760000e-07,6.25000000e-02,9.59687500e+00,-1.43750000e-02,-1.62500000e-01
-5.39440000e-07,7.50000000e-02,9.53437500e+00,-1.18750000e-02,-5.46875000e-02
-5.39120000e-07,7.50000000e-02,9.67187500e+00,-6.87500000e-03,1.01562500e-02
-5.38800000e-07,6.25000000e-02,9.53437500e+00,-1.93750000e-02,2.03125000e-02
-5.38480000e-07,2.50000000e-02,9.74687500e+00,-4.43750000e-02,-3.82812500e-02
-5.38160000e-07,1.25000000e-02,9.68437500e+00,-7.00000000e-02,-7.42187500e-02
-5.37840000e-07,2.50000000e-02,9.70937500e+00,-1.18750000e-02,-2.57812500e-02
-5.37520000e-07,1.50000000e-01,9.64687500e+00,-3.12500000e-02,5.23437500e-02
-5.37200000e-07,-1.25000000e-02,9.59687500e+00,-4.37500000e-03,8.75000000e-02
-5.36880000e-07,1.75000000e-01,9.58437500e+00,-3.12500000e-02,4.60937500e-02
-5.36560000e-07,7.50000000e-02,9.63437500e+00,-4.87500000e-02,3.51562500e-02
-5.36240000e-07,1.00000000e-01,9.55937500e+00,-2.56250000e-02,1.56250000e-02
-5.35920000e-07,5.00000000e-02,9.67187500e+00,-2.12500000e-02,-2.65625000e-02
-5.35600000e-07,3.75000000e-02,9.57187500e+00,-4.06250000e-02,3.82812500e-02
-5.35280000e-07,1.62500000e-01,9.68437500e+00,-2.56250000e-02,-1.56250000e-02
-5.34960000e-07,1.00000000e-01,9.68437500e+00,-4.12500000e-02,-2.18750000e-02
-5.34640000e-07,7.50000000e-02,9.52187500e+00,-1.12500000e-02,-6.48437500e-02
-5.34320000e-07,8.75000000e-02,9.48437500e+00,0.00000000e+00,-2.89062500e-02
-5.34000000e-07,-6.25000000e-02,9.55937500e+00,-1.43750000e-02,6.71875000e-02
-5.33680000e-07,-3.75000000e-02,9.50937500e+00,-2.87500000e-02,-2.50000000e-02
-5.33360000e-07,8.75000000e-02,9.58437500e+00,-3.37500000e-02,-1.10937500e-01
-5.33040000e-07,1.37500000e-01,9.69687500e+00,-1.18750000e-02,-1.14062500e-01
-5.32720000e-07,1.25000000e-02,9.68437500e+00,-5.37500000e-02,-8.35937500e-02
-5.32400000e-07,-2.50000000e-02,9.62187500e+00,-5.37500000e-02,-6.56250000e-02
-5.32080000e-07,5.00000000e-02,9.82187500e+00,6.25000000e-04,4.45312500e-02
-5.31760000e-07,1.62500000e-01,9.57187500e+00,6.25000000e-04,7.50000000e-02
-5.31440000e-07,-5.00000000e-02,9.50937500e+00,-7.50000000e-03,-1.25000000e-02
-5.31120000e-07,-1.25000000e-02,9.55937500e+00,-4.37500000e-02,-5.78125000e-02
-5.30800000e-07,1.25000000e-01,9.60937500e+00,-2.18750000e-02,-3.67187500e-02
-5.30480000e-07,-2.50000000e-02,9.65937500e+00,-3.12500000e-02,-3.82812500e-02
-5.30160000e-07,1.25000000e-02,9.69687500e+00,-2.81250000e-02,-1.25000000e-02
-5.29840000e-07,1.12500000e-01,9.58437500e+00,-3.06250000e-02,2.03125000e-02
-5.29520000e-07,1.00000000e-01,9.73437500e+00,-1.37500000e-02,-1.64062500e-02
-5.29200000e-07,-3.75000000e-02,9.50937500e+00,-2.18750000e-02,-1.03125000e-01
-5.28880000e-07,1.62500000e-01,9.52187500e+00,-9.37500000e-03,-5.54687500e-02
-5.28560000e-07,1.25000000e-01,9.59687500e+00,-4.12500000e-02,-3.82812500e-02
-5.28240000e-07,-6.25000000e-02,9.62187500e+00,-1.93750000e-02,-1.08593750e-01
-5.27920000e-07,0.00000000e+00,9.74687500e+00,-3.18750000e-02,-1.87500000e-01
-5.27600000e-07,3.75000000e-02,9.73437500e+00,-9.37500000e-03,-2.12500000e-01
-5.27280000e-07,8.75000000e-02,9.58437500e+00,-1.56250000e-02,-7.81250000e-02
-5.26960000e-07,6.25000000e-02,9.69687500e+00,-3.62500000e-02,-4.76562500e-02
-5.26640000e-07,6.25000000e-02,9.75937500e+00,-1.12500000e-02,-1.13281250e-01
-5.26320000e-07,1.00000000e-01,9.50937500e+00,-2.18750000e-02,-8.82812500e-02
-5.26000000e-07,6.25000000e-02,9.50937500e+00,-1.75000000e-02,-5.07812500e-02
-5.25680000e-07,1.00000000e-01,9.54687500e+00,-3.62500000e-02,-7.96875000e-02
-5.25360000e-07,1.25000000e-02,9.55937500e+00,1.25000000e-03,-9.21875000e-02
-5.25040000e-07,1.00000000e-01,9.60937500e+00,-1.50000000e-02,-8.98437500e-02
-5.24720000e-07,1.12500000e-01,9.73437500e+00,-4.62500000e-02,-7.65625000e-02
-5.24400000e-07,1.50000000e-01,9.64687500e+00,1.25000000e-03,-5.31250000e-02
-5.24080000e-07,5.00000000e-02,9.55937500e+00,2.50000000e-03,-5.46875000e-02
-5.23760000e-07,-5.00000000e-02,9.45937500e+00,-3.62500000e-02,-1.25000000e-02
-5.23440000e-07,1.37500000e-01,9.50937500e+00,-3.75000000e-02,-5.46875000e-03
-5.23120000e-07,1.00000000e-01,9.69687500e+00,8.75000000e-03,-7.34375000e-02
-5.22800000e-07,3.75000000e-02,9.57187500e+00,-4.56250000e-02,-9.60937500e-02
-5.22480000e-07,2.50000000e-02,9.60937500e+00,-3.37500000e-02,-1.07812500e-01
-5.22160000e-07,2.37500000e-01,9.69687500e+00,-5.06250000e-02,-1.64062500e-01
-5.21840000e-07,5.00000000e-02,9.62187500e+00,-3.75000000e-03,-1.20312500e-01
