Modeling_source_codes_PCIM2025/data/Idiode-Vds/Vgs=0.00/Vdd=11.50_ALL.csv

Model,MSO56B
Channel,CH2,,Channel,CH3,,Channel,CH4,,Channel,CH5
Label,,,Label,,,Label,,,Label,
Waveform Type,ANALOG,,Waveform Type,ANALOG,,Waveform Type,ANALOG,,Waveform Type,ANALOG
Horizontal Units,s,,Horizontal Units,s,,Horizontal Units,s,,Horizontal Units,s
Sample Interval,3.20000000e-10,,Sample Interval,3.20000000e-10,,Sample Interval,3.20000000e-10,,Sample Interval,3.20000000e-10
Record Length,12500,,Record Length,12500,,Record Length,12500,,Record Length,12500
Zero Index,1874.75000000,,Zero Index,1874.75000000,,Zero Index,1874.75000000,,Zero Index,1874.75000000
Vertical Units,V,,Vertical Units,V,,Vertical Units,V,,Vertical Units,A
,,,,,,,,,,
ANALOG_Thumbnail,,,ANALOG_Thumbnail,,,ANALOG_Thumbnail,,,ANALOG_Thumbnail,
yOffset,0.000000,,yOffset,0.000000,,yOffset,0.000000,,yOffset,0.000000
yPosition,-3.000000,,yPosition,-3.000000,,yPosition,-3.000000,,yPosition,-3.000000

Labels,,,,
TIME,CH2,CH3,CH4,CH5
-5.99920000e-07,1.00000000e-01,1.17875000e+01,-1.25000000e-02,7.81250000e-04
-5.99600000e-07,-7.50000000e-02,1.18125000e+01,-4.12500000e-02,-2.34375000e-02
-5.99280000e-07,7.50000000e-02,1.15250000e+01,-1.93750000e-02,-2.96875000e-02
-5.98960000e-07,6.25000000e-02,1.16750000e+01,-4.37500000e-02,-4.92187500e-02
-5.98640000e-07,5.00000000e-02,1.16250000e+01,-4.00000000e-02,-9.45312500e-02
-5.98320000e-07,8.75000000e-02,1.17375000e+01,1.25000000e-03,-1.03906250e-01
-5.98000000e-07,8.75000000e-02,1.16125000e+01,-2.81250000e-02,-1.12500000e-01
-5.97680000e-07,1.50000000e-01,1.15375000e+01,-2.18750000e-02,-1.04687500e-01
-5.97360000e-07,7.50000000e-02,1.16500000e+01,0.00000000e+00,-7.18750000e-02
-5.97040000e-07,7.50000000e-02,1.16625000e+01,-2.87500000e-02,-1.87500000e-02
-5.96720000e-07,1.62500000e-01,1.15500000e+01,-2.25000000e-02,-3.51562500e-02
-5.96400000e-07,1.12500000e-01,1.16625000e+01,-3.12500000e-02,-5.39062500e-02
-5.96080000e-07,1.37500000e-01,1.17125000e+01,-1.12500000e-02,-1.00781250e-01
-5.95760000e-07,1.00000000e-01,1.17125000e+01,-1.25000000e-03,-9.45312500e-02
-5.95440000e-07,1.00000000e-01,1.16000000e+01,-2.62500000e-02,-5.93750000e-02
-5.95120000e-07,5.00000000e-02,1.15750000e+01,-2.62500000e-02,-1.09375000e-02
-5.94800000e-07,2.50000000e-01,1.16875000e+01,-5.37500000e-02,0.00000000e+00
-5.94480000e-07,1.00000000e-01,1.15750000e+01,-8.75000000e-03,5.78125000e-02
-5.94160000e-07,-1.25000000e-02,1.17500000e+01,3.56250000e-02,5.31250000e-02
-5.93840000e-07,8.75000000e-02,1.15750000e+01,-2.56250000e-02,-4.60937500e-02
-5.93520000e-07,1.00000000e-01,1.16000000e+01,-3.87500000e-02,-2.89062500e-02
-5.93200000e-07,7.50000000e-02,1.17875000e+01,-1.18750000e-02,-1.64062500e-02
-5.92880000e-07,1.00000000e-01,1.16250000e+01,-2.31250000e-02,-8.20312500e-02
-5.92560000e-07,1.12500000e-01,1.16875000e+01,-4.12500000e-02,-1.09375000e-02
-5.92240000e-07,1.00000000e-01,1.16125000e+01,-1.68750000e-02,-1.17187500e-02
-5.91920000e-07,2.62500000e-01,1.16125000e+01,-3.31250000e-02,-6.87500000e-02
-5.91600000e-07,8.75000000e-02,1.16625000e+01,1.25000000e-03,-4.68750000e-02
-5.91280000e-07,5.00000000e-02,1.16625000e+01,-1.37500000e-02,3.28125000e-02
-5.90960000e-07,2.12500000e-01,1.14625000e+01,-2.18750000e-02,-2.57812500e-02
-5.90640000e-07,2.00000000e-01,1.17125000e+01,-1.25000000e-02,-6.87500000e-02
-5.90320000e-07,1.12500000e-01,1.16000000e+01,-4.12500000e-02,-1.56250000e-02
-5.90000000e-07,3.75000000e-02,1.14500000e+01,-3.31250000e-02,4.84375000e-02
-5.89680000e-07,-2.50000000e-02,1.15375000e+01,-4.06250000e-02,-1.87500000e-02
-5.89360000e-07,8.75000000e-02,1.16125000e+01,-1.12500000e-02,1.95312500e-02
-5.89040000e-07,1.50000000e-01,1.16000000e+01,-2.87500000e-02,3.90625000e-02
-5.88720000e-07,3.75000000e-02,1.16750000e+01,-4.56250000e-02,-7.57812500e-02
-5.88400000e-07,1.62500000e-01,1.16125000e+01,-7.50000000e-03,-2.73437500e-02
-5.88080000e-07,2.37500000e-01,1.16000000e+01,-5.56250000e-02,1.64062500e-02
-5.87760000e-07,1.00000000e-01,1.16750000e+01,-2.75000000e-02,-7.50000000e-02
-5.87440000e-07,8.75000000e-02,1.17625000e+01,-4.06250000e-02,-4.76562500e-02
-5.87120000e-07,1.37500000e-01,1.16250000e+01,-5.81250000e-02,-2.50000000e-02
-5.86800000e-07,1.62500000e-01,1.16750000e+01,-3.31250000e-02,8.12500000e-02
-5.86480000e-07,-2.50000000e-02,1.16625000e+01,-2.81250000e-02,4.92187500e-02
-5.86160000e-07,5.00000000e-02,1.15375000e+01,-3.00000000e-02,5.39062500e-02
-5.85840000e-07,2.00000000e-01,1.16125000e+01,-1.43750000e-02,4.60937500e-02
-5.85520000e-07,7.50000000e-02,1.17500000e+01,-1.93750000e-02,-6.56250000e-02
-5.85200000e-07,1.12500000e-01,1.16250000e+01,-3.37500000e-02,-1.16406250e-01
-5.84880000e-07,1.12500000e-01,1.16500000e+01,-2.75000000e-02,-8.35937500e-02
-5.84560000e-07,1.25000000e-02,1.17000000e+01,-1.87500000e-02,-4.76562500e-02
-5.84240000e-07,1.25000000e-01,1.17000000e+01,-3.56250000e-02,2.65625000e-02
-5.83920000e-07,5.00000000e-02,1.16625000e+01,-4.87500000e-02,-1.64062500e-02
-5.83600000e-07,1.25000000e-02,1.16125000e+01,-3.37500000e-02,-9.37500000e-02
-5.83280000e-07,0.00000000e+00,1.15875000e+01,-2.81250000e-02,-1.32812500e-02
-5.82960000e-07,1.37500000e-01,1.16875000e+01,-3.31250000e-02,3.82812500e-02
-5.82640000e-07,1.25000000e-01,1.16500000e+01,-2.75000000e-02,-7.34375000e-02
-5.82320000e-07,1.12500000e-01,1.17375000e+01,-2.81250000e-02,-1.63281250e-01
-5.82000000e-07,8.75000000e-02,1.17250000e+01,-3.06250000e-02,-6.71875000e-02
-5.81680000e-07,2.25000000e-01,1.17625000e+01,-4.87500000e-02,2.73437500e-02
-5.81360000e-07,1.87500000e-01,1.15250000e+01,-3.56250000e-02,5.39062500e-02
-5.81040000e-07,3.75000000e-02,1.16000000e+01,-1.12500000e-02,3.12500000e-03
-5.80720000e-07,1.37500000e-01,1.16625000e+01,-2.18750000e-02,-5.15625000e-02
-5.80400000e-07,1.50000000e-01,1.16875000e+01,-1.87500000e-03,-3.35937500e-02
-5.80080000e-07,8.75000000e-02,1.16500000e+01,-3.06250000e-02,-1.07812500e-01
-5.79760000e-07,5.00000000e-02,1.16875000e+01,6.25000000e-04,-1.26562500e-01
-5.79440000e-07,7.50000000e-02,1.17125000e+01,-2.62500000e-02,-8.98437500e-02
-5.79120000e-07,3.75000000e-02,1.16750000e+01,-4.37500000e-02,-9.68750000e-02
-5.78800000e-07,8.75000000e-02,1.17125000e+01,-2.62500000e-02,-1.87500000e-02
-5.78480000e-07,1.37500000e-01,1.17250000e+01,-4.31250000e-02,9.37500000e-03
-5.78160000e-07,1.25000000e-01,1.16625000e+01,-2.50000000e-02,-2.34375000e-02
-5.77840000e-07,1.87500000e-01,1.17000000e+01,-2.81250000e-02,-5.54687500e-02
-5.77520000e-07,7.50000000e-02,1.16875000e+01,-4.56250000e-02,-1.16406250e-01
-5.77200000e-07,1.50000000e-01,1.18125000e+01,-3.87500000e-02,-5.00000000e-02
-5.76880000e-07,1.00000000e-01,1.16875000e+01,-2.50000000e-02,-6.64062500e-02
-5.76560000e-07,3.75000000e-02,1.15750000e+01,-2.56250000e-02,-6.01562500e-02
-5.76240000e-07,2.25000000e-01,1.15750000e+01,-4.56250000e-02,-3.12500000e-02
-5.75920000e-07,7.50000000e-02,1.18375000e+01,-2.18750000e-02,8.35937500e-02
-5.75600000e-07,1.50000000e-01,1.17000000e+01,-5.12500000e-02,4.60937500e-02
-5.75280000e-07,2.12500000e-01,1.16750000e+01,3.12500000e-03,-9.14062500e-02
-5.74960000e-07,6.25000000e-02,1.17750000e+01,-3.43750000e-02,-1.78906250e-01
-5.74640000e-07,1.25000000e-01,1.17000000e+01,-3.12500000e-02,-1.16406250e-01
-5.74320000e-07,0.00000000e+00,1.16000000e+01,-3.62500000e-02,-8.90625000e-02
-5.74000000e-07,5.00000000e-02,1.15625000e+01,-5.81250000e-02,6.25000000e-03
-5.73680000e-07,5.00000000e-02,1.16750000e+01,-1.12500000e-02,-2.42187500e-02
-5.73360000e-07,1.87500000e-01,1.16875000e+01,-1.93750000e-02,-8.59375000e-02
-5.73040000e-07,8.75000000e-02,1.16875000e+01,-2.18750000e-02,-3.82812500e-02
-5.72720000e-07,8.75000000e-02,1.17000000e+01,6.25000000e-04,-7.18750000e-02
-5.72400000e-07,1.50000000e-01,1.16750000e+01,-4.37500000e-03,-1.43750000e-01
-5.72080000e-07,3.75000000e-02,1.16875000e+01,-2.00000000e-02,-8.04687500e-02
-5.71760000e-07,-5.00000000e-02,1.15375000e+01,-3.62500000e-02,-4.76562500e-02
-5.71440000e-07,-6.25000000e-02,1.16000000e+01,-4.06250000e-02,-2.34375000e-03
-5.71120000e-07,1.25000000e-01,1.16250000e+01,-4.25000000e-02,-3.59375000e-02
-5.70800000e-07,2.50000000e-02,1.16875000e+01,-3.75000000e-03,-9.68750000e-02
-5.70480000e-07,0.00000000e+00,1.17250000e+01,-3.31250000e-02,-3.51562500e-02
-5.70160000e-07,7.50000000e-02,1.17125000e+01,-2.25000000e-02,-2.89062500e-02
-5.69840000e-07,1.50000000e-01,1.15250000e+01,-3.87500000e-02,-1.04687500e-01
-5.69520000e-07,1.50000000e-01,1.16750000e+01,-1.25000000e-03,-9.53125000e-02
-5.69200000e-07,1.25000000e-01,1.17000000e+01,-4.81250000e-02,-9.37500000e-03
-5.68880000e-07,6.25000000e-02,1.14750000e+01,-2.18750000e-02,8.59375000e-03
-5.68560000e-07,7.50000000e-02,1.16000000e+01,5.00000000e-03,-2.73437500e-02
-5.68240000e-07,7.50000000e-02,1.16875000e+01,-2.62500000e-02,3.75000000e-02
-5.67920000e-07,2.50000000e-02,1.18000000e+01,-4.37500000e-02,6.71875000e-02
-5.67600000e-07,2.50000000e-02,1.17250000e+01,-9.37500000e-03,1.09375000e-02
-5.67280000e-07,2.37500000e-01,1.15250000e+01,-4.37500000e-03,-8.98437500e-02
-5.66960000e-07,1.37500000e-01,1.15500000e+01,-1.50000000e-02,-1.70312500e-01
-5.66640000e-07,5.00000000e-02,1.15750000e+01,-2.87500000e-02,-7.50000000e-02
-5.66320000e-07,1.25000000e-01,1.16125000e+01,-1.12500000e-02,-9.37500000e-03
-5.66000000e-07,1.00000000e-01,1.15875000e+01,-4.37500000e-03,1.71875000e-02
-5.65680000e-07,1.25000000e-02,1.16625000e+01,-1.68750000e-02,3.35937500e-02
-5.65360000e-07,1.87500000e-01,1.17125000e+01,-2.18750000e-02,-4.29687500e-02
-5.65040000e-07,1.25000000e-01,1.17750000e+01,5.62500000e-03,-5.00000000e-02
-5.64720000e-07,1.00000000e-01,1.15250000e+01,-2.56250000e-02,-1.30468750e-01
-5.64400000e-07,5.00000000e-02,1.17250000e+01,-1.75000000e-02,-4.14062500e-02
-5.64080000e-07,8.75000000e-02,1.16750000e+01,-4.12500000e-02,-2.73437500e-02
-5.63760000e-07,1.62500000e-01,1.16000000e+01,-1.12500000e-02,-7.73437500e-02
-5.63440000e-07,5.00000000e-02,1.16125000e+01,-4.37500000e-03,-8.28125000e-02
-5.63120000e-07,0.00000000e+00,1.17750000e+01,-1.75000000e-02,-4.29687500e-02
-5.62800000e-07,2.87500000e-01,1.17125000e+01,-3.87500000e-02,-5.31250000e-02
-5.62480000e-07,1.00000000e-01,1.16375000e+01,-1.87500000e-02,-3.82812500e-02
-5.62160000e-07,1.25000000e-02,1.16625000e+01,-1.43750000e-02,-3.20312500e-02
-5.61840000e-07,3.75000000e-02,1.16125000e+01,-1.43750000e-02,-4.06250000e-02
-5.61520000e-07,-3.75000000e-02,1.18500000e+01,-4.12500000e-02,-1.14062500e-01
-5.61200000e-07,1.75000000e-01,1.16000000e+01,-5.12500000e-02,-1.16406250e-01
-5.60880000e-07,5.00000000e-02,1.16375000e+01,-3.87500000e-02,-1.53906250e-01
-5.60560000e-07,1.12500000e-01,1.17250000e+01,-4.25000000e-02,-9.37500000e-02
-5.60240000e-07,2.87500000e-01,1.15250000e+01,6.25000000e-03,2.18750000e-02
-5.59920000e-07,1.25000000e-01,1.17750000e+01,-1.37500000e-02,-5.46875000e-03
-5.59600000e-07,-1.25000000e-02,1.17250000e+01,-9.37500000e-03,-9.06250000e-02
-5.59280000e-07,3.75000000e-02,1.15250000e+01,3.12500000e-03,-1.14062500e-01
-5.58960000e-07,-6.25000000e-02,1.15875000e+01,-3.62500000e-02,-7.89062500e-02
-5.58640000e-07,-1.40625000e-01,1.17125000e+01,-4.87500000e-02,-5.15625000e-02
-5.58320000e-07,7.81250000e-02,1.17250000e+01,-1.93750000e-02,-1.10156250e-01
-5.58000000e-07,1.12500000e-01,1.16000000e+01,-5.00000000e-03,-9.68750000e-02
-5.57680000e-07,1.50000000e-01,1.15750000e+01,-4.62500000e-02,-6.71875000e-02
-5.57360000e-07,2.50000000e-02,1.16000000e+01,1.25000000e-03,-2.42187500e-02
-5.57040000e-07,7.50000000e-02,1.16125000e+01,-6.87500000e-03,9.37500000e-03
-5.56720000e-07,1.62500000e-01,1.17625000e+01,-1.00000000e-02,-6.71875000e-02
-5.56400000e-07,1.50000000e-01,1.17875000e+01,-4.37500000e-02,-1.07812500e-01
-5.56080000e-07,2.50000000e-01,1.17125000e+01,-2.75000000e-02,-8.59375000e-03
-5.55760000e-07,1.75000000e-01,1.15750000e+01,-1.12500000e-02,-1.56250000e-02
-5.55440000e-07,8.75000000e-02,1.17625000e+01,-2.18750000e-02,-4.60937500e-02
-5.55120000e-07,6.25000000e-02,1.15500000e+01,-5.87500000e-02,-6.56250000e-02
-5.54800000e-07,-3.75000000e-02,1.16375000e+01,-1.93750000e-02,-5.15625000e-02
-5.54480000e-07,1.00000000e-01,1.16875000e+01,-2.56250000e-02,-2.50000000e-02
-5.54160000e-07,1.62500000e-01,1.17125000e+01,-3.31250000e-02,-3.35937500e-02
-5.53840000e-07,2.50000000e-02,1.17750000e+01,-2.50000000e-02,-6.56250000e-02
-5.53520000e-07,2.50000000e-02,1.17500000e+01,-3.06250000e-02,-2.10937500e-02
-5.53200000e-07,1.25000000e-01,1.17000000e+01,-2.56250000e-02,-7.34375000e-02
-5.52880000e-07,-6.25000000e-02,1.17625000e+01,-1.43750000e-02,-5.15625000e-02
-5.52560000e-07,5.00000000e-02,1.16375000e+01,2.50000000e-03,-2.89062500e-02
-5.52240000e-07,7.50000000e-02,1.16875000e+01,3.12500000e-03,-4.84375000e-02
-5.51920000e-07,5.00000000e-02,1.16375000e+01,-4.06250000e-02,-3.90625000e-02
-5.51600000e-07,-7.50000000e-02,1.17000000e+01,8.12500000e-03,-3.59375000e-02
-5.51280000e-07,1.25000000e-02,1.17125000e+01,-2.00000000e-02,-1.64062500e-02
-5.50960000e-07,2.25000000e-01,1.16125000e+01,-3.12500000e-02,2.03125000e-02
-5.50640000e-07,3.75000000e-02,1.15625000e+01,-3.00000000e-02,-5.00000000e-02
-5.50320000e-07,3.75000000e-02,1.15625000e+01,-1.43750000e-02,-7.03125000e-02
-5.50000000e-07,2.62500000e-01,1.15875000e+01,-6.06250000e-02,-1.17187500e-02
-5.49680000e-07,1.75000000e-01,1.16125000e+01,-2.18750000e-02,-2.81250000e-02
-5.49360000e-07,6.25000000e-02,1.17000000e+01,-3.06250000e-02,-6.95312500e-02
-5.49040000e-07,3.75000000e-02,1.15625000e+01,-2.56250000e-02,-1.44531250e-01
-5.48720000e-07,-6.25000000e-02,1.15750000e+01,-1.62500000e-02,-1.25781250e-01
-5.48400000e-07,6.25000000e-02,1.16625000e+01,-1.00000000e-02,2.65625000e-02
-5.48080000e-07,7.50000000e-02,1.15750000e+01,-1.25000000e-02,1.79687500e-02
-5.47760000e-07,1.12500000e-01,1.17375000e+01,-3.37500000e-02,0.00000000e+00
-5.47440000e-07,1.00000000e-01,1.16000000e+01,-5.37500000e-02,-4.68750000e-03
-5.47120000e-07,5.00000000e-02,1.16750000e+01,-7.68750000e-02,-1.40625000e-02
-5.46800000e-07,7.50000000e-02,1.17500000e+01,-1.12500000e-02,-3.43750000e-02
-5.46480000e-07,8.75000000e-02,1.17125000e+01,7.50000000e-03,-9.29687500e-02
-5.46160000e-07,3.75000000e-02,1.16250000e+01,-1.50000000e-02,-8.82812500e-02
-5.45840000e-07,1.25000000e-01,1.18250000e+01,-4.87500000e-02,-7.34375000e-02
-5.45520000e-07,1.50000000e-01,1.17625000e+01,-3.00000000e-02,-2.65625000e-02
-5.45200000e-07,1.00000000e-01,1.15875000e+01,-1.62500000e-02,1.95312500e-02
-5.44880000e-07,7.50000000e-02,1.17000000e+01,-2.75000000e-02,1.95312500e-02
-5.44560000e-07,1.12500000e-01,1.17000000e+01,-9.37500000e-03,-9.37500000e-03
-5.44240000e-07,2.50000000e-01,1.15750000e+01,-4.87500000e-02,-8.98437500e-02
-5.43920000e-07,6.25000000e-02,1.17250000e+01,-1.68750000e-02,-9.92187500e-02
-5.43600000e-07,5.00000000e-02,1.17125000e+01,-1.50000000e-02,-6.71875000e-02
-5.43280000e-07,6.25000000e-02,1.16250000e+01,-2.87500000e-02,5.46875000e-02
-5.42960000e-07,-2.50000000e-02,1.16250000e+01,-1.18750000e-02,1.48437500e-02
-5.42640000e-07,-6.25000000e-02,1.16500000e+01,1.25000000e-02,-7.26562500e-02
-5.42320000e-07,-1.25000000e-02,1.17000000e+01,-3.31250000e-02,-8.35937500e-02
-5.42000000e-07,1.25000000e-01,1.16125000e+01,-1.00000000e-02,-3.59375000e-02
-5.41680000e-07,5.00000000e-02,1.17375000e+01,-3.56250000e-02,-2.65625000e-02
-5.41360000e-07,7.50000000e-02,1.17375000e+01,1.37500000e-02,-1.47656250e-01
-5.41040000e-07,1.62500000e-01,1.14750000e+01,-2.18750000e-02,-1.79687500e-01
-5.40720000e-07,2.00000000e-01,1.15625000e+01,-3.56250000e-02,-1.02343750e-01
-5.40400000e-07,1.25000000e-02,1.16125000e+01,-2.56250000e-02,-7.03125000e-03
-5.40080000e-07,-6.25000000e-02,1.16250000e+01,-2.12500000e-02,6.01562500e-02
-5.39760000e-07,1.12500000e-01,1.17000000e+01,-1.50000000e-02,-2.03125000e-02
-5.39440000e-07,1.75000000e-01,1.17125000e+01,-1.50000000e-02,-5.78125000e-02
-5.39120000e-07,2.50000000e-02,1.17000000e+01,-2.18750000e-02,-1.18750000e-01
-5.38800000e-07,1.00000000e-01,1.17125000e+01,-2.00000000e-02,-1.54687500e-01
-5.38480000e-07,1.87500000e-01,1.17125000e+01,-4.62500000e-02,-1.40625000e-01
-5.38160000e-07,7.50000000e-02,1.17000000e+01,-3.25000000e-02,-2.42187500e-02
-5.37840000e-07,2.50000000e-02,1.16625000e+01,-1.37500000e-02,1.01562500e-02
-5.37520000e-07,6.25000000e-02,1.17375000e+01,-9.37500000e-03,6.95312500e-02
-5.37200000e-07,7.50000000e-02,1.17000000e+01,-2.18750000e-02,7.81250000e-02
-5.36880000e-07,1.12500000e-01,1.18000000e+01,-1.50000000e-02,-1.79687500e-02
-5.36560000e-07,1.37500000e-01,1.17125000e+01,-1.18750000e-02,-1.17187500e-01
-5.36240000e-07,7.50000000e-02,1.15250000e+01,-3.12500000e-02,-8.82812500e-02
-5.35920000e-07,1.37500000e-01,1.18125000e+01,-2.81250000e-02,-5.54687500e-02
-5.35600000e-07,6.25000000e-02,1.17125000e+01,-1.18750000e-02,-4.92187500e-02
-5.35280000e-07,1.12500000e-01,1.17375000e+01,-1.12500000e-02,-3.59375000e-02
-5.34960000e-07,5.00000000e-02,1.16125000e+01,-2.00000000e-02,-2.42187500e-02
-5.34640000e-07,2.50000000e-02,1.15875000e+01,-4.12500000e-02,-6.64062500e-02
-5.34320000e-07,7.50000000e-02,1.18375000e+01,-1.62500000e-02,-2.03125000e-02
-5.34000000e-07,7.50000000e-02,1.16250000e+01,-2.56250000e-02,-2.10937500e-02
-5.33680000e-07,-2.50000000e-02,1.16000000e+01,-2.62500000e-02,-9.68750000e-02
-5.33360000e-07,5.00000000e-02,1.16000000e+01,-2.18750000e-02,-5.23437500e-02
-5.33040000e-07,1.87500000e-01,1.17000000e+01,-1.00000000e-02,-2.57812500e-02
-5.32720000e-07,8.75000000e-02,1.17500000e+01,5.62500000e-03,-2.50000000e-02
-5.32400000e-07,1.25000000e-01,1.18375000e+01,5.62500000e-03,-1.87500000e-02
-5.32080000e-07,1.12500000e-01,1.17000000e+01,-1.93750000e-02,-3.12500000e-02
-5.31760000e-07,2.50000000e-02,1.15250000e+01,-1.93750000e-02,-2.26562500e-02
-5.31440000e-07,8.75000000e-02,1.16625000e+01,-1.43750000e-02,-4.84375000e-02
-5.31120000e-07,1.87500000e-01,1.17125000e+01,-1.00000000e-02,-8.12500000e-02
-5.30800000e-07,1.25000000e-02,1.18125000e+01,-3.31250000e-02,-4.76562500e-02
-5.30480000e-07,2.12500000e-01,1.16875000e+01,-3.06250000e-02,-4.06250000e-02
-5.30160000e-07,1.25000000e-01,1.16375000e+01,-3.56250000e-02,-2.81250000e-02
-5.29840000e-07,1.12500000e-01,1.16500000e+01,-4.12500000e-02,5.46875000e-03
-5.29520000e-07,2.50000000e-02,1.16375000e+01,-2.12500000e-02,-1.09375000e-02
-5.29200000e-07,1.25000000e-01,1.18250000e+01,1.81250000e-02,-1.01562500e-01
-5.28880000e-07,3.75000000e-02,1.16250000e+01,-1.43750000e-02,-1.32812500e-01
-5.28560000e-07,3.75000000e-02,1.16875000e+01,-2.25000000e-02,-4.21875000e-02
-5.28240000e-07,2.12500000e-01,1.16625000e+01,-3.87500000e-02,-4.45312500e-02
-5.27920000e-07,7.50000000e-02,1.17625000e+01,-2.81250000e-02,-6.95312500e-02
-5.27600000e-07,0.00000000e+00,1.16250000e+01,-2.12500000e-02,-1.03906250e-01
-5.27280000e-07,-6.25000000e-02,1.15750000e+01,-2.81250000e-02,-9.76562500e-02
-5.26960000e-07,1.50000000e-01,1.17375000e+01,-1.87500000e-03,-5.70312500e-02
-5.26640000e-07,1.25000000e-01,1.18500000e+01,-5.00000000e-03,-3.04687500e-02
-5.26320000e-07,-1.25000000e-02,1.17000000e+01,-4.87500000e-02,-9.37500000e-02
-5.26000000e-07,2.50000000e-02,1.16250000e+01,-4.81250000e-02,-9.29687500e-02
-5.25680000e-07,3.75000000e-02,1.16500000e+01,-5.06250000e-02,-3.12500000e-02
-5.25360000e-07,1.50000000e-01,1.16250000e+01,-1.37500000e-02,5.07812500e-02
-5.25040000e-07,6.25000000e-02,1.15125000e+01,-3.62500000e-02,4.92187500e-02
-5.24720000e-07,6.25000000e-02,1.17250000e+01,-5.62500000e-02,5.39062500e-02
-5.24400000e-07,3.75000000e-02,1.17375000e+01,-4.37500000e-02,1.25000000e-02
-5.24080000e-07,1.37500000e-01,1.17750000e+01,-1.62500000e-02,-9.84375000e-02
-5.23760000e-07,5.00000000e-02,1.15875000e+01,-2.87500000e-02,-1.28125000e-01
-5.23440000e-07,-3.75000000e-02,1.16375000e+01,-6.87500000e-03,-8.28125000e-02
-5.23120000e-07,-1.25000000e-02,1.15875000e+01,-2.68750000e-02,-9.84375000e-02
-5.22800000e-07,-1.25000000e-02,1.17250000e+01,-5.12500000e-02,-7.26562500e-02
-5.22480000e-07,3.75000000e-02,1.17875000e+01,-4.62500000e-02,-2.57812500e-02
-5.22160000e-07,7.50000000e-02,1.15250000e+01,-3.06250000e-02,-7.81250000e-04
-5.21840000e-07,7.50000000e-02,1.16250000e+01,-3.56250000e-02,-1.01562500e-02
