Modeling_source_codes_PCIM2025/data/Qds_Vgs=20_Vdd=100_000_ALL.csv

Model,MSO56B
Channel,CH2,,Channel,CH3,,Channel,CH4,,Channel,CH5,,Channel,CH6
Label,,,Label,,,Label,,,Label,,,Label,
Waveform Type,ANALOG,,Waveform Type,ANALOG,,Waveform Type,ANALOG,,Waveform Type,ANALOG,,Waveform Type,ANALOG
Horizontal Units,s,,Horizontal Units,s,,Horizontal Units,s,,Horizontal Units,s,,Horizontal Units,s
Sample Interval,3.20000000e-10,,Sample Interval,3.20000000e-10,,Sample Interval,3.20000000e-10,,Sample Interval,3.20000000e-10,,Sample Interval,3.20000000e-10
Record Length,1250,,Record Length,1250,,Record Length,1250,,Record Length,1250,,Record Length,1250
Zero Index,62.51562500,,Zero Index,62.51562500,,Zero Index,62.51562500,,Zero Index,62.51562500,,Zero Index,62.51562500
Vertical Units,V,,Vertical Units,V,,Vertical Units,V,,Vertical Units,V,,Vertical Units,A
,,,,,,,,,,,,,
ANALOG_Thumbnail,,,ANALOG_Thumbnail,,,ANALOG_Thumbnail,,,ANALOG_Thumbnail,,,ANALOG_Thumbnail,
yOffset,0.000000,,yOffset,0.000000,,yOffset,0.000000,,yOffset,0.000000,,yOffset,0.000000
yPosition,-3.000000,,yPosition,-3.000000,,yPosition,-3.000000,,yPosition,-3.000000,,yPosition,4.000000

Labels,,,,,
TIME,CH2,CH3,CH4,CH5,CH6
-2.00050000e-08,1.50960000e+02,1.50375000e+02,1.15625000e-01,-1.15625000e-01,-1.80093750e-03
-1.96850000e-08,1.50540000e+02,1.50615000e+02,-5.31250000e-02,-7.81250000e-02,-1.83812500e-03
-1.93650000e-08,1.51200000e+02,1.50915000e+02,-1.93750000e-01,-1.40625000e-01,-1.93375000e-03
-1.90450000e-08,1.51020000e+02,1.50975000e+02,2.81250000e-02,-4.06250000e-02,-2.07718750e-03
-1.87250000e-08,1.50900000e+02,1.50795000e+02,-1.43750000e-01,-1.53125000e-01,-2.18875000e-03
-1.84050000e-08,1.51080000e+02,1.51095000e+02,-6.25000000e-02,-1.71875000e-01,-2.15687500e-03
-1.80850000e-08,1.51140000e+02,1.50435000e+02,0.00000000e+00,-1.50000000e-01,-1.90187500e-03
-1.77650000e-08,1.51080000e+02,1.51035000e+02,-2.34375000e-01,-1.25000000e-02,-1.41312500e-03
-1.74450000e-08,1.50780000e+02,1.51155000e+02,-1.12500000e-01,4.68750000e-02,-8.18125000e-04
-1.71250000e-08,1.50720000e+02,1.50855000e+02,3.75000000e-02,9.68750000e-02,-2.86875000e-04
-1.68050000e-08,1.50480000e+02,1.50915000e+02,5.00000000e-02,-2.81250000e-02,7.43750000e-05
-1.64850000e-08,1.50960000e+02,1.50615000e+02,-1.56250000e-01,-2.50000000e-01,2.12500000e-04
-1.61650000e-08,1.50960000e+02,1.50315000e+02,-1.25000000e-02,-1.25000000e-01,1.27500000e-04
-1.58450000e-08,1.51140000e+02,1.51275000e+02,1.25000000e-02,-2.18750000e-02,-1.54062500e-04
-1.55250000e-08,1.51440000e+02,1.51095000e+02,-2.50000000e-02,-2.81250000e-02,-5.68437500e-04
-1.52050000e-08,1.51500000e+02,1.51275000e+02,-7.81250000e-02,-5.31250000e-02,-1.04656250e-03
-1.48850000e-08,1.50960000e+02,1.50990000e+02,-1.56250000e-01,-1.56250000e-02,-1.47156250e-03
-1.45650000e-08,1.51380000e+02,1.50915000e+02,-1.31250000e-01,-1.28125000e-01,-1.77437500e-03
-1.42450000e-08,1.51320000e+02,1.50315000e+02,-1.40625000e-01,-1.15625000e-01,-1.94968750e-03
-1.39250000e-08,1.50960000e+02,1.50435000e+02,-3.43750000e-02,-1.56250000e-02,-2.05062500e-03
-1.36050000e-08,1.50660000e+02,1.51095000e+02,-3.43750000e-02,-2.81250000e-02,-2.09312500e-03
-1.32850000e-08,1.51440000e+02,1.51335000e+02,-1.46875000e-01,5.93750000e-02,-2.05593750e-03
-1.29650000e-08,1.51500000e+02,1.50975000e+02,-1.31250000e-01,-1.56250000e-02,-1.94437500e-03
-1.26450000e-08,1.51560000e+02,1.50615000e+02,-7.18750000e-02,-1.03125000e-01,-1.75312500e-03
-1.23250000e-08,1.51260000e+02,1.50495000e+02,-3.43750000e-02,-9.06250000e-02,-1.48218750e-03
-1.20050000e-08,1.51080000e+02,1.50915000e+02,-1.84375000e-01,4.68750000e-02,-1.17937500e-03
-1.16850000e-08,1.50720000e+02,1.51155000e+02,-1.84375000e-01,-8.12500000e-02,-8.97812500e-04
-1.13650000e-08,1.50900000e+02,1.50795000e+02,-7.18750000e-02,-1.28125000e-01,-7.11875000e-04
-1.10450000e-08,1.51020000e+02,1.50540000e+02,-2.50000000e-02,-3.75000000e-02,-6.32187500e-04
-1.07250000e-08,1.51320000e+02,1.50615000e+02,-1.56250000e-01,-3.12500000e-03,-6.10937500e-04
-1.04050000e-08,1.51200000e+02,1.51095000e+02,6.56250000e-02,-2.12500000e-01,-5.41875000e-04
-1.00850000e-08,1.51080000e+02,1.50915000e+02,-1.00000000e-01,-7.50000000e-02,-3.34687500e-04
-9.76500000e-09,1.51680000e+02,1.50555000e+02,-1.43750000e-01,1.15625000e-01,-3.71875000e-05
-9.44500000e-09,1.51260000e+02,1.51035000e+02,-5.93750000e-02,-1.18750000e-01,2.33750000e-04
-9.12500000e-09,1.51080000e+02,1.50615000e+02,-5.93750000e-02,-1.03125000e-01,3.45312500e-04
-8.80500000e-09,1.50480000e+02,1.51275000e+02,1.25000000e-01,-7.50000000e-02,2.76250000e-04
-8.48500000e-09,1.51140000e+02,1.50675000e+02,-1.56250000e-02,-1.40625000e-01,1.00937500e-04
-8.16500000e-09,1.51020000e+02,1.51155000e+02,-1.56250000e-01,-1.87500000e-01,-6.90625000e-05
-7.84500000e-09,1.51020000e+02,1.51035000e+02,-4.68750000e-02,-1.25000000e-01,-1.54062500e-04
-7.52500000e-09,1.50900000e+02,1.50675000e+02,-8.75000000e-02,-9.37500000e-03,-1.64687500e-04
-7.20500000e-09,1.50720000e+02,1.50495000e+02,-8.75000000e-02,1.09375000e-01,-2.12500000e-04
-6.88500000e-09,1.50840000e+02,1.50615000e+02,-7.50000000e-02,-4.06250000e-02,-3.82500000e-04
-6.56500000e-09,1.51380000e+02,1.50975000e+02,-1.25000000e-02,-1.43750000e-01,-7.06562500e-04
-6.24500000e-09,1.50540000e+02,1.51095000e+02,-1.03125000e-01,-2.87500000e-01,-1.11031250e-03
-5.92500000e-09,1.50960000e+02,1.50915000e+02,-1.68750000e-01,-3.75000000e-02,-1.46625000e-03
-5.60500000e-09,1.51080000e+02,1.50855000e+02,-3.43750000e-02,-7.50000000e-02,-1.66812500e-03
-5.28500000e-09,1.51080000e+02,1.51335000e+02,2.81250000e-02,-1.56250000e-01,-1.68406250e-03
-4.96500000e-09,1.51080000e+02,1.50360000e+02,7.50000000e-02,-2.75000000e-01,-1.54593750e-03
-4.64500000e-09,1.51500000e+02,1.50660000e+02,-2.50000000e-02,-6.25000000e-02,-1.31218750e-03
-4.32500000e-09,1.50900000e+02,1.50435000e+02,-3.75000000e-02,-1.25000000e-02,-1.03593750e-03
-4.00500000e-09,1.51020000e+02,1.50735000e+02,-7.81250000e-02,-4.06250000e-02,-7.70312500e-04
-3.68500000e-09,1.50600000e+02,1.50420000e+02,-1.96875000e-01,2.18750000e-02,-6.10937500e-04
-3.36500000e-09,1.50960000e+02,1.50435000e+02,-2.84375000e-01,-2.21875000e-01,-6.10937500e-04
-3.04500000e-09,1.51260000e+02,1.51395000e+02,-3.43750000e-01,-1.00000000e-01,-7.38437500e-04
-2.72500000e-09,1.50780000e+02,1.51350000e+02,-1.65625000e-01,-1.53125000e-01,-9.19062500e-04
-2.40500000e-09,1.50780000e+02,1.50150000e+02,-3.46875000e-01,-1.40625000e-01,-1.04656250e-03
-2.08500000e-09,1.50720000e+02,1.50540000e+02,-3.46875000e-01,-5.00000000e-02,-1.09968750e-03
-1.76500000e-09,1.51140000e+02,1.50795000e+02,-5.09375000e-01,-4.06250000e-02,-1.12625000e-03
-1.44500000e-09,1.50900000e+02,1.50615000e+02,-4.46875000e-01,7.18750000e-02,-1.15812500e-03
-1.12500000e-09,1.51080000e+02,1.50315000e+02,-3.71875000e-01,-1.15625000e-01,-1.16875000e-03
-8.05000000e-10,1.51260000e+02,1.50735000e+02,-6.09375000e-01,-1.15625000e-01,-1.09968750e-03
-4.85000000e-10,1.50660000e+02,1.51095000e+02,-5.43750000e-01,-2.12500000e-01,-9.61562500e-04
-1.65000000e-10,1.50720000e+02,1.50435000e+02,3.87500000e-01,-1.00000000e-01,-8.76562500e-04
1.55000000e-10,1.50960000e+02,1.51095000e+02,1.60937500e+00,9.06250000e-02,-9.50937500e-04
4.75000000e-10,1.50900000e+02,1.50555000e+02,3.30625000e+00,3.12500000e-02,-1.20062500e-03
7.95000000e-10,1.50780000e+02,1.50435000e+02,5.06250000e+00,3.15625000e-01,-1.48750000e-03
1.11500000e-09,1.50960000e+02,1.50735000e+02,6.79375000e+00,3.34375000e-01,-1.63625000e-03
1.43500000e-09,1.51440000e+02,1.50855000e+02,8.98437500e+00,5.00000000e-01,-1.55656250e-03
1.75500000e-09,1.51260000e+02,1.51275000e+02,1.11843750e+01,6.78125000e-01,-1.26437500e-03
2.07500000e-09,1.51620000e+02,1.51455000e+02,1.33593750e+01,7.75000000e-01,-8.76562500e-04
2.39500000e-09,1.51080000e+02,1.50555000e+02,1.48781250e+01,1.08125000e+00,-4.78125000e-04
2.71500000e-09,1.50840000e+02,1.50915000e+02,1.58937500e+01,1.05000000e+00,-1.16875000e-04
3.03500000e-09,1.51200000e+02,1.50735000e+02,1.68875000e+01,1.12187500e+00,1.75312500e-04
3.35500000e-09,1.51020000e+02,1.51275000e+02,1.78125000e+01,7.50000000e-01,3.40000000e-04
3.67500000e-09,1.51500000e+02,1.50990000e+02,1.84000000e+01,7.28125000e-01,3.18750000e-04
3.99500000e-09,1.51440000e+02,1.50735000e+02,1.88750000e+01,6.50000000e-01,9.03125000e-05
4.31500000e-09,1.51380000e+02,1.50615000e+02,1.91000000e+01,5.31250000e-01,-2.81562500e-04
4.63500000e-09,1.51260000e+02,1.51335000e+02,1.92750000e+01,7.34375000e-01,-6.85312500e-04
4.95500000e-09,1.51020000e+02,1.51170000e+02,1.93250000e+01,6.46875000e-01,-1.02000000e-03
5.27500000e-09,1.50780000e+02,1.50735000e+02,1.93750000e+01,7.65625000e-01,-1.23250000e-03
5.59500000e-09,1.50960000e+02,1.50915000e+02,1.92750000e+01,7.62500000e-01,-1.30156250e-03
5.91500000e-09,1.50660000e+02,1.50735000e+02,1.92750000e+01,9.21875000e-01,-1.26437500e-03
6.23500000e-09,1.50780000e+02,1.50420000e+02,1.93500000e+01,9.81250000e-01,-1.16343750e-03
6.55500000e-09,1.50780000e+02,1.50615000e+02,1.92750000e+01,9.09375000e-01,-1.04656250e-03
6.87500000e-09,1.51080000e+02,1.51095000e+02,1.92125000e+01,9.84375000e-01,-9.35000000e-04
7.19500000e-09,1.50600000e+02,1.51095000e+02,1.94875000e+01,1.15000000e+00,-8.07500000e-04
7.51500000e-09,1.50480000e+02,1.51155000e+02,1.94375000e+01,1.06250000e+00,-6.74687500e-04
7.83500000e-09,1.50540000e+02,1.50795000e+02,1.92625000e+01,9.84375000e-01,-5.89687500e-04
8.15500000e-09,1.50780000e+02,1.50555000e+02,1.94625000e+01,1.09687500e+00,-6.00312500e-04
8.47500000e-09,1.51380000e+02,1.51095000e+02,1.95500000e+01,9.37500000e-01,-6.85312500e-04
8.79500000e-09,1.50720000e+02,1.51155000e+02,1.95750000e+01,1.20000000e+00,-7.33125000e-04
9.11500000e-09,1.50780000e+02,1.51035000e+02,1.95125000e+01,1.12500000e+00,-6.32187500e-04
9.43500000e-09,1.51440000e+02,1.50615000e+02,1.94375000e+01,1.20000000e+00,-3.61250000e-04
9.75500000e-09,1.51500000e+02,1.50975000e+02,1.94625000e+01,1.10000000e+00,0.00000000e+00
1.00750000e-08,1.51260000e+02,1.50795000e+02,1.94000000e+01,1.01250000e+00,3.50625000e-04
1.03950000e-08,1.51080000e+02,1.50735000e+02,1.94250000e+01,1.15937500e+00,5.89687500e-04
1.07150000e-08,1.51380000e+02,1.51215000e+02,1.94750000e+01,1.19687500e+00,6.80000000e-04
1.10350000e-08,1.51620000e+02,1.50735000e+02,1.93625000e+01,1.31875000e+00,6.42812500e-04
1.13550000e-08,1.50900000e+02,1.50600000e+02,1.94750000e+01,1.41875000e+00,6.00312500e-04
1.16750000e-08,1.50540000e+02,1.50105000e+02,1.94375000e+01,1.35625000e+00,6.95937500e-04
1.19950000e-08,1.51380000e+02,1.50615000e+02,1.95125000e+01,1.38125000e+00,1.03593750e-03
1.23150000e-08,1.51140000e+02,1.51095000e+02,1.92875000e+01,1.41875000e+00,1.63093750e-03
1.26350000e-08,1.50540000e+02,1.50435000e+02,1.93125000e+01,1.41875000e+00,2.35343750e-03
1.29550000e-08,1.50960000e+02,1.50915000e+02,1.93125000e+01,1.40625000e+00,3.02812500e-03
1.32750000e-08,1.51260000e+02,1.50915000e+02,1.92375000e+01,1.55625000e+00,3.48500000e-03
1.35950000e-08,1.50960000e+02,1.50915000e+02,1.91500000e+01,1.44062500e+00,3.63375000e-03
1.39150000e-08,1.51140000e+02,1.50735000e+02,1.92000000e+01,1.41250000e+00,3.45843750e-03
1.42350000e-08,1.51140000e+02,1.51095000e+02,1.92000000e+01,1.44062500e+00,3.01750000e-03
1.45550000e-08,1.50900000e+02,1.50900000e+02,1.91375000e+01,1.44375000e+00,2.44375000e-03
1.48750000e-08,1.51500000e+02,1.50675000e+02,1.93875000e+01,1.60625000e+00,1.87000000e-03
1.51950000e-08,1.51200000e+02,1.50915000e+02,1.92625000e+01,1.52812500e+00,1.38125000e-03
1.55150000e-08,1.50900000e+02,1.50315000e+02,1.93625000e+01,1.58750000e+00,9.93437500e-04
1.58350000e-08,1.51560000e+02,1.50675000e+02,1.92500000e+01,1.58750000e+00,6.74687500e-04
1.61550000e-08,1.51320000e+02,1.50480000e+02,1.91750000e+01,1.61250000e+00,3.82500000e-04
1.64750000e-08,1.51440000e+02,1.50165000e+02,1.92625000e+01,1.59062500e+00,9.03125000e-05
1.67950000e-08,1.51140000e+02,1.50975000e+02,1.92375000e+01,1.75937500e+00,-2.17812500e-04
1.71150000e-08,1.51500000e+02,1.51095000e+02,1.94125000e+01,1.63750000e+00,-5.41875000e-04
1.74350000e-08,1.51320000e+02,1.50555000e+02,1.93125000e+01,1.70000000e+00,-8.76562500e-04
1.77550000e-08,1.50960000e+02,1.50495000e+02,1.92500000e+01,1.75000000e+00,-1.22187500e-03
1.80750000e-08,1.50600000e+02,1.50855000e+02,1.91250000e+01,1.77187500e+00,-1.59375000e-03
1.83950000e-08,1.51200000e+02,1.51155000e+02,1.91875000e+01,1.75937500e+00,-2.00281250e-03
1.87150000e-08,1.51380000e+02,1.50615000e+02,1.92500000e+01,1.75000000e+00,-2.41187500e-03
1.90350000e-08,1.51320000e+02,1.49970000e+02,1.92000000e+01,1.86250000e+00,-2.73593750e-03
1.93550000e-08,1.51020000e+02,1.51035000e+02,1.92750000e+01,1.90000000e+00,-2.87937500e-03
1.96750000e-08,1.51500000e+02,1.50600000e+02,1.93500000e+01,1.81250000e+00,-2.80500000e-03
1.99950000e-08,1.50780000e+02,1.50555000e+02,1.94125000e+01,1.92500000e+00,-2.54468750e-03
2.03150000e-08,1.51080000e+02,1.50735000e+02,1.93875000e+01,1.93750000e+00,-2.15156250e-03
2.06350000e-08,1.50900000e+02,1.50915000e+02,1.91875000e+01,1.93750000e+00,-1.67875000e-03
2.09550000e-08,1.50900000e+02,1.50975000e+02,1.93625000e+01,1.93750000e+00,-1.20593750e-03
2.12750000e-08,1.50720000e+02,1.50915000e+02,1.93875000e+01,2.19375000e+00,-8.44687500e-04
2.15950000e-08,1.50840000e+02,1.50795000e+02,1.92625000e+01,2.10937500e+00,-6.58750000e-04
2.19150000e-08,1.51380000e+02,1.50675000e+02,1.92750000e+01,2.07500000e+00,-5.95000000e-04
2.22350000e-08,1.51260000e+02,1.50615000e+02,1.91875000e+01,1.99375000e+00,-5.36562500e-04
2.25550000e-08,1.51080000e+02,1.51095000e+02,1.91125000e+01,2.05937500e+00,-4.19687500e-04
2.28750000e-08,1.50900000e+02,1.51575000e+02,1.92375000e+01,2.00000000e+00,-3.02812500e-04
2.31950000e-08,1.50720000e+02,1.50720000e+02,1.93125000e+01,2.23125000e+00,-3.18750000e-04
2.35150000e-08,1.51080000e+02,1.51380000e+02,1.93000000e+01,2.28750000e+00,-4.83437500e-04
2.38350000e-08,1.50480000e+02,1.50930000e+02,1.91750000e+01,2.11875000e+00,-7.06562500e-04
2.41550000e-08,1.51380000e+02,1.50795000e+02,1.92875000e+01,2.32500000e+00,-8.50000000e-04
2.44750000e-08,1.51620000e+02,1.50675000e+02,1.92625000e+01,2.31562500e+00,-8.50000000e-04
2.47950000e-08,1.51260000e+02,1.51155000e+02,1.93500000e+01,2.15625000e+00,-7.33125000e-04
2.51150000e-08,1.50900000e+02,1.50855000e+02,1.92625000e+01,2.34062500e+00,-5.36562500e-04
2.54350000e-08,1.50420000e+02,1.50315000e+02,1.92625000e+01,2.20312500e+00,-2.92187500e-04
2.57550000e-08,1.50900000e+02,1.51155000e+02,1.93875000e+01,2.23750000e+00,-5.31250000e-05
2.60750000e-08,1.51020000e+02,1.51455000e+02,1.93750000e+01,2.17500000e+00,1.00937500e-04
2.63950000e-08,1.51080000e+02,1.50480000e+02,1.93375000e+01,2.37500000e+00,1.27500000e-04
2.67150000e-08,1.51080000e+02,1.50840000e+02,1.93000000e+01,2.47812500e+00,7.96875000e-05
2.70350000e-08,1.51380000e+02,1.50555000e+02,1.92250000e+01,2.28125000e+00,6.37500000e-05
2.73550000e-08,1.50900000e+02,1.50915000e+02,1.92500000e+01,2.43125000e+00,1.38125000e-04
2.76750000e-08,1.51020000e+02,1.51095000e+02,1.93250000e+01,2.55625000e+00,2.65625000e-04
2.79950000e-08,1.50900000e+02,1.50435000e+02,1.93750000e+01,2.51875000e+00,3.50625000e-04
2.83150000e-08,1.50600000e+02,1.50495000e+02,1.93250000e+01,2.45625000e+00,3.45312500e-04
2.86350000e-08,1.50900000e+02,1.50795000e+02,1.94250000e+01,2.46875000e+00,2.92187500e-04
2.89550000e-08,1.50660000e+02,1.51155000e+02,1.93500000e+01,2.54375000e+00,2.49687500e-04
2.92750000e-08,1.51260000e+02,1.50735000e+02,1.93250000e+01,2.48125000e+00,1.85937500e-04
2.95950000e-08,1.51020000e+02,1.51155000e+02,1.92500000e+01,2.58125000e+00,-1.06250000e-05
2.99150000e-08,1.51320000e+02,1.50855000e+02,1.93250000e+01,2.63125000e+00,-4.40937500e-04
3.02350000e-08,1.51020000e+02,1.51515000e+02,1.93375000e+01,2.75937500e+00,-1.05718750e-03
3.05550000e-08,1.50900000e+02,1.50990000e+02,1.94000000e+01,2.56875000e+00,-1.68937500e-03
3.08750000e-08,1.50600000e+02,1.50495000e+02,1.94000000e+01,2.63125000e+00,-2.14093750e-03
3.11950000e-08,1.51140000e+02,1.50315000e+02,1.93125000e+01,2.72187500e+00,-2.34812500e-03
3.15150000e-08,1.51560000e+02,1.50855000e+02,1.93875000e+01,2.72187500e+00,-2.40125000e-03
3.18350000e-08,1.50780000e+02,1.50795000e+02,1.92750000e+01,2.69375000e+00,-2.39593750e-03
3.21550000e-08,1.50960000e+02,1.51455000e+02,1.91750000e+01,2.74687500e+00,-2.33218750e-03
3.24750000e-08,1.51200000e+02,1.50810000e+02,1.94500000e+01,2.72187500e+00,-2.14625000e-03
3.27950000e-08,1.50900000e+02,1.50975000e+02,1.92375000e+01,2.82187500e+00,-1.79031250e-03
3.31150000e-08,1.50840000e+02,1.51335000e+02,1.92375000e+01,2.65625000e+00,-1.28562500e-03
3.34350000e-08,1.50720000e+02,1.50600000e+02,1.93375000e+01,2.84687500e+00,-7.27812500e-04
3.37550000e-08,1.51200000e+02,1.51020000e+02,1.93875000e+01,2.80937500e+00,-2.60312500e-04
3.40750000e-08,1.51080000e+02,1.51335000e+02,1.92000000e+01,2.87187500e+00,-1.06250000e-05
3.43950000e-08,1.51020000e+02,1.51095000e+02,1.94250000e+01,2.80937500e+00,-1.06250000e-05
3.47150000e-08,1.51200000e+02,1.50480000e+02,1.93000000e+01,3.00937500e+00,-1.64687500e-04
3.50350000e-08,1.51260000e+02,1.50975000e+02,1.92500000e+01,2.84687500e+00,-2.65625000e-04
3.53550000e-08,1.51260000e+02,1.51215000e+02,1.92875000e+01,2.93437500e+00,-1.54062500e-04
3.56750000e-08,1.51260000e+02,1.50735000e+02,1.93625000e+01,2.79687500e+00,1.32812500e-04
3.59950000e-08,1.51500000e+02,1.50735000e+02,1.92875000e+01,2.85937500e+00,4.03750000e-04
3.63150000e-08,1.51080000e+02,1.51035000e+02,1.93250000e+01,2.98437500e+00,4.46250000e-04
3.66350000e-08,1.51260000e+02,1.50675000e+02,1.94125000e+01,2.98437500e+00,1.85937500e-04
3.69550000e-08,1.51200000e+02,1.50225000e+02,1.94125000e+01,2.99687500e+00,-2.49687500e-04
3.72750000e-08,1.51320000e+02,1.51275000e+02,1.94250000e+01,3.07187500e+00,-6.37500000e-04
3.75950000e-08,1.50840000e+02,1.51230000e+02,1.93000000e+01,3.00937500e+00,-7.65000000e-04
3.79150000e-08,1.51140000e+02,1.50495000e+02,1.93750000e+01,3.12500000e+00,-5.10000000e-04
3.82350000e-08,1.50720000e+02,1.51275000e+02,1.93125000e+01,3.18750000e+00,9.56250000e-05
3.85550000e-08,1.50480000e+02,1.50975000e+02,1.93500000e+01,3.15312500e+00,8.76562500e-04
3.88750000e-08,1.51080000e+02,1.51155000e+02,1.94375000e+01,2.99062500e+00,1.62031250e-03
3.91950000e-08,1.51080000e+02,1.51035000e+02,1.93625000e+01,3.27812500e+00,2.14093750e-03
3.95150000e-08,1.51320000e+02,1.50495000e+02,1.93750000e+01,3.14375000e+00,2.37468750e-03
3.98350000e-08,1.50960000e+02,1.50495000e+02,1.93000000e+01,3.12500000e+00,2.38000000e-03
4.01550000e-08,1.50900000e+02,1.50225000e+02,1.93000000e+01,3.21250000e+00,2.20468750e-03
4.04750000e-08,1.50900000e+02,1.50855000e+02,1.93750000e+01,3.10000000e+00,1.87000000e-03
4.07950000e-08,1.51020000e+02,1.51095000e+02,1.93875000e+01,3.27500000e+00,1.39718750e-03
4.11150000e-08,1.50900000e+02,1.50615000e+02,1.92125000e+01,3.27500000e+00,8.55312500e-04
4.14350000e-08,1.51140000e+02,1.50975000e+02,1.92625000e+01,3.04062500e+00,3.66562500e-04
4.17550000e-08,1.51020000e+02,1.51575000e+02,1.92750000e+01,3.33750000e+00,4.25000000e-05
4.20750000e-08,1.51260000e+02,1.50660000e+02,1.94875000e+01,3.33750000e+00,-6.37500000e-05
4.23950000e-08,1.51020000e+02,1.50780000e+02,1.94250000e+01,3.48750000e+00,1.06250000e-05
4.27150000e-08,1.51260000e+02,1.50855000e+02,1.92750000e+01,3.32500000e+00,1.64687500e-04
4.30350000e-08,1.50900000e+02,1.50975000e+02,1.93500000e+01,3.47500000e+00,3.02812500e-04
4.33550000e-08,1.51440000e+02,1.50315000e+02,1.93625000e+01,3.46250000e+00,3.61250000e-04
4.36750000e-08,1.51260000e+02,1.50435000e+02,1.94125000e+01,3.47500000e+00,2.92187500e-04
4.39950000e-08,1.50840000e+02,1.51575000e+02,1.93375000e+01,3.42500000e+00,1.00937500e-04
4.43150000e-08,1.50900000e+02,1.50510000e+02,1.93625000e+01,3.32500000e+00,-2.28437500e-04
4.46350000e-08,1.50840000e+02,1.50435000e+02,1.94375000e+01,3.32500000e+00,-7.06562500e-04
4.49550000e-08,1.50600000e+02,1.50795000e+02,1.93375000e+01,3.45000000e+00,-1.31218750e-03
4.52750000e-08,1.51260000e+02,1.50675000e+02,1.92750000e+01,3.62812500e+00,-1.94968750e-03
4.55950000e-08,1.50720000e+02,1.51035000e+02,1.94500000e+01,3.60000000e+00,-2.45968750e-03
