Modeling_source_codes_PCIM2025/data/Qg_Vgs=20_Vdd=100_000_ALL.csv

Model,MSO56B
Channel,CH2,,Channel,CH3,,Channel,CH4,,Channel,CH5,,Channel,CH6
Label,,,Label,,,Label,,,Label,,,Label,
Waveform Type,ANALOG,,Waveform Type,ANALOG,,Waveform Type,ANALOG,,Waveform Type,ANALOG,,Waveform Type,ANALOG
Horizontal Units,s,,Horizontal Units,s,,Horizontal Units,s,,Horizontal Units,s,,Horizontal Units,s
Sample Interval,3.20000000e-10,,Sample Interval,3.20000000e-10,,Sample Interval,3.20000000e-10,,Sample Interval,3.20000000e-10,,Sample Interval,3.20000000e-10
Record Length,125000,,Record Length,125000,,Record Length,125000,,Record Length,125000,,Record Length,125000
Zero Index,18749.25000000,,Zero Index,18749.25000000,,Zero Index,18749.25000000,,Zero Index,18749.25000000,,Zero Index,18749.25000000
Vertical Units,V,,Vertical Units,V,,Vertical Units,V,,Vertical Units,V,,Vertical Units,A
,,,,,,,,,,,,,
ANALOG_Thumbnail,,,ANALOG_Thumbnail,,,ANALOG_Thumbnail,,,ANALOG_Thumbnail,,,ANALOG_Thumbnail,
yOffset,0.000000,,yOffset,0.000000,,yOffset,0.000000,,yOffset,0.000000,,yOffset,0.000000
yPosition,-3.000000,,yPosition,-3.000000,,yPosition,-3.000000,,yPosition,-3.000000,,yPosition,-3.000000

Labels,,,,,
TIME,CH2,CH3,CH4,CH5,CH6
-5.99976000e-06,2.66250000e+00,1.00150000e+02,1.95750000e+01,1.82500000e+01,1.50000000e+00
-5.99944000e-06,3.22500000e+00,1.00450000e+02,1.96250000e+01,1.82125000e+01,1.50093750e+00
-5.99912000e-06,2.95000000e+00,1.00800000e+02,1.96000000e+01,1.82375000e+01,1.50156250e+00
-5.99880000e-06,2.73750000e+00,1.01050000e+02,1.96750000e+01,1.83250000e+01,1.50218750e+00
-5.99848000e-06,2.48750000e+00,1.00500000e+02,1.95875000e+01,1.82125000e+01,1.50312500e+00
-5.99816000e-06,2.40000000e+00,1.00550000e+02,1.96500000e+01,1.81500000e+01,1.50343750e+00
-5.99784000e-06,2.08750000e+00,1.00350000e+02,1.96000000e+01,1.81375000e+01,1.50406250e+00
-5.99752000e-06,2.37500000e+00,1.00500000e+02,1.96750000e+01,1.81625000e+01,1.50437500e+00
-5.99720000e-06,2.32500000e+00,1.00500000e+02,1.97375000e+01,1.82125000e+01,1.50500000e+00
-5.99688000e-06,2.17500000e+00,1.00750000e+02,1.97500000e+01,1.82750000e+01,1.50562500e+00
-5.99656000e-06,2.17500000e+00,1.00800000e+02,1.96500000e+01,1.82625000e+01,1.50625000e+00
-5.99624000e-06,2.15000000e+00,1.00900000e+02,1.97250000e+01,1.82875000e+01,1.50687500e+00
-5.99592000e-06,2.80000000e+00,1.00500000e+02,1.96875000e+01,1.82750000e+01,1.50750000e+00
-5.99560000e-06,2.52500000e+00,1.00850000e+02,1.96875000e+01,1.82750000e+01,1.50781250e+00
-5.99528000e-06,2.12500000e+00,1.00850000e+02,1.97125000e+01,1.82500000e+01,1.50812500e+00
-5.99496000e-06,2.36250000e+00,1.00400000e+02,1.97125000e+01,1.82250000e+01,1.50812500e+00
-5.99464000e-06,2.82500000e+00,1.00300000e+02,1.96125000e+01,1.83000000e+01,1.50781250e+00
-5.99432000e-06,2.73750000e+00,1.00850000e+02,1.96625000e+01,1.82625000e+01,1.50718750e+00
-5.99400000e-06,2.01250000e+00,1.00850000e+02,1.96250000e+01,1.82625000e+01,1.50656250e+00
-5.99368000e-06,2.43750000e+00,1.00600000e+02,1.96875000e+01,1.81875000e+01,1.50531250e+00
-5.99336000e-06,2.43750000e+00,1.00550000e+02,1.97125000e+01,1.82750000e+01,1.50437500e+00
-5.99304000e-06,1.92500000e+00,1.01100000e+02,1.95625000e+01,1.83375000e+01,1.50312500e+00
-5.99272000e-06,2.17500000e+00,1.00500000e+02,1.96750000e+01,1.82875000e+01,1.50250000e+00
-5.99240000e-06,2.07500000e+00,1.00400000e+02,1.96125000e+01,1.81750000e+01,1.50218750e+00
-5.99208000e-06,2.42500000e+00,1.01000000e+02,1.96500000e+01,1.82750000e+01,1.50187500e+00
-5.99176000e-06,2.47500000e+00,1.00650000e+02,1.96875000e+01,1.82375000e+01,1.50250000e+00
-5.99144000e-06,2.33750000e+00,1.00500000e+02,1.95750000e+01,1.82125000e+01,1.50281250e+00
-5.99112000e-06,2.50000000e+00,1.00400000e+02,1.97250000e+01,1.82000000e+01,1.50343750e+00
-5.99080000e-06,2.93750000e+00,1.01100000e+02,1.96000000e+01,1.82250000e+01,1.50406250e+00
-5.99048000e-06,2.36250000e+00,1.00900000e+02,1.96000000e+01,1.83750000e+01,1.50406250e+00
-5.99016000e-06,2.25000000e+00,1.00750000e+02,1.97500000e+01,1.82250000e+01,1.50406250e+00
-5.98984000e-06,2.65000000e+00,1.00100000e+02,1.97125000e+01,1.82375000e+01,1.50406250e+00
-5.98952000e-06,2.67500000e+00,1.00550000e+02,1.96750000e+01,1.81875000e+01,1.50375000e+00
-5.98920000e-06,1.77500000e+00,1.00700000e+02,1.95625000e+01,1.82625000e+01,1.50375000e+00
-5.98888000e-06,2.81250000e+00,1.00750000e+02,1.95625000e+01,1.83500000e+01,1.50406250e+00
-5.98856000e-06,2.63750000e+00,1.00700000e+02,1.95625000e+01,1.83000000e+01,1.50500000e+00
-5.98824000e-06,2.27500000e+00,1.00450000e+02,1.95500000e+01,1.82250000e+01,1.50625000e+00
-5.98792000e-06,2.58750000e+00,1.00600000e+02,1.95250000e+01,1.82625000e+01,1.50812500e+00
-5.98760000e-06,2.48750000e+00,1.00300000e+02,1.95875000e+01,1.83000000e+01,1.51000000e+00
-5.98728000e-06,2.12500000e+00,1.00250000e+02,1.97625000e+01,1.82375000e+01,1.51187500e+00
-5.98696000e-06,2.52500000e+00,1.00250000e+02,1.96750000e+01,1.82000000e+01,1.51375000e+00
-5.98664000e-06,2.37500000e+00,1.00350000e+02,1.96875000e+01,1.82750000e+01,1.51500000e+00
-5.98632000e-06,2.37500000e+00,1.01350000e+02,1.95750000e+01,1.82625000e+01,1.51531250e+00
-5.98600000e-06,2.02500000e+00,1.00300000e+02,1.96250000e+01,1.82250000e+01,1.51500000e+00
-5.98568000e-06,2.57500000e+00,1.00600000e+02,1.95750000e+01,1.83875000e+01,1.51406250e+00
-5.98536000e-06,2.32500000e+00,1.00300000e+02,1.95750000e+01,1.82250000e+01,1.51281250e+00
-5.98504000e-06,2.57500000e+00,1.00100000e+02,1.96125000e+01,1.82125000e+01,1.51156250e+00
-5.98472000e-06,2.47500000e+00,1.00550000e+02,1.97000000e+01,1.82625000e+01,1.51000000e+00
-5.98440000e-06,2.12500000e+00,1.00750000e+02,1.96250000e+01,1.81125000e+01,1.50875000e+00
-5.98408000e-06,2.13750000e+00,1.00800000e+02,1.96750000e+01,1.83375000e+01,1.50812500e+00
-5.98376000e-06,2.51250000e+00,1.00450000e+02,1.95750000e+01,1.82875000e+01,1.50812500e+00
-5.98344000e-06,2.95000000e+00,1.00200000e+02,1.96500000e+01,1.83250000e+01,1.50812500e+00
-5.98312000e-06,2.56250000e+00,1.00450000e+02,1.97000000e+01,1.83500000e+01,1.50875000e+00
-5.98280000e-06,2.43750000e+00,1.00300000e+02,1.96250000e+01,1.83000000e+01,1.50937500e+00
-5.98248000e-06,2.22500000e+00,1.00800000e+02,1.97000000e+01,1.82625000e+01,1.51000000e+00
-5.98216000e-06,3.01250000e+00,1.00900000e+02,1.95500000e+01,1.81000000e+01,1.51062500e+00
-5.98184000e-06,2.62500000e+00,1.00400000e+02,1.95125000e+01,1.81625000e+01,1.51156250e+00
-5.98152000e-06,2.32500000e+00,1.00750000e+02,1.96625000e+01,1.82000000e+01,1.51281250e+00
-5.98120000e-06,2.63750000e+00,1.00550000e+02,1.96625000e+01,1.81000000e+01,1.51375000e+00
-5.98088000e-06,2.23750000e+00,1.01050000e+02,1.97000000e+01,1.84625000e+01,1.51531250e+00
-5.98056000e-06,2.13750000e+00,1.00500000e+02,1.96125000e+01,1.83500000e+01,1.51656250e+00
-5.98024000e-06,2.55000000e+00,1.00550000e+02,1.95625000e+01,1.82875000e+01,1.51812500e+00
-5.97992000e-06,2.83750000e+00,1.00800000e+02,1.97125000e+01,1.82750000e+01,1.51968750e+00
-5.97960000e-06,2.46250000e+00,1.00350000e+02,1.97875000e+01,1.83625000e+01,1.52062500e+00
-5.97928000e-06,2.20000000e+00,1.00250000e+02,1.96375000e+01,1.82250000e+01,1.52156250e+00
-5.97896000e-06,2.72500000e+00,1.00550000e+02,1.95750000e+01,1.82375000e+01,1.52156250e+00
-5.97864000e-06,2.85000000e+00,1.00700000e+02,1.95625000e+01,1.82250000e+01,1.52093750e+00
-5.97832000e-06,2.25000000e+00,1.00450000e+02,1.96750000e+01,1.82875000e+01,1.51937500e+00
-5.97800000e-06,1.86250000e+00,1.00550000e+02,1.96375000e+01,1.83000000e+01,1.51750000e+00
-5.97768000e-06,2.55000000e+00,1.00500000e+02,1.96250000e+01,1.82375000e+01,1.51562500e+00
-5.97736000e-06,2.48750000e+00,1.01050000e+02,1.96250000e+01,1.82000000e+01,1.51375000e+00
-5.97704000e-06,2.52500000e+00,1.00700000e+02,1.96750000e+01,1.82000000e+01,1.51218750e+00
-5.97672000e-06,2.42500000e+00,1.00650000e+02,1.97000000e+01,1.82000000e+01,1.51093750e+00
-5.97640000e-06,2.57500000e+00,1.00350000e+02,1.95375000e+01,1.82750000e+01,1.51062500e+00
-5.97608000e-06,2.38750000e+00,1.00050000e+02,1.97625000e+01,1.84375000e+01,1.51062500e+00
-5.97576000e-06,2.40000000e+00,1.00450000e+02,1.97250000e+01,1.83750000e+01,1.51093750e+00
-5.97544000e-06,3.08750000e+00,9.99500000e+01,1.96250000e+01,1.82500000e+01,1.51125000e+00
-5.97512000e-06,2.51250000e+00,1.00250000e+02,1.95500000e+01,1.82750000e+01,1.51218750e+00
-5.97480000e-06,2.48750000e+00,1.00650000e+02,1.98000000e+01,1.81625000e+01,1.51312500e+00
-5.97448000e-06,2.08750000e+00,1.00350000e+02,1.96500000e+01,1.81625000e+01,1.51437500e+00
-5.97416000e-06,2.38750000e+00,1.00650000e+02,1.96250000e+01,1.82750000e+01,1.51500000e+00
-5.97384000e-06,2.73750000e+00,1.00650000e+02,1.95625000e+01,1.83750000e+01,1.51593750e+00
-5.97352000e-06,2.27500000e+00,1.00500000e+02,1.96125000e+01,1.82125000e+01,1.51625000e+00
-5.97320000e-06,2.37500000e+00,1.00450000e+02,1.96500000e+01,1.83625000e+01,1.51687500e+00
-5.97288000e-06,2.22500000e+00,1.01100000e+02,1.96125000e+01,1.82625000e+01,1.51687500e+00
-5.97256000e-06,2.38750000e+00,1.00300000e+02,1.96750000e+01,1.82750000e+01,1.51656250e+00
-5.97224000e-06,2.56250000e+00,1.00300000e+02,1.96125000e+01,1.82000000e+01,1.51562500e+00
-5.97192000e-06,3.25000000e+00,1.00600000e+02,1.96250000e+01,1.81750000e+01,1.51437500e+00
-5.97160000e-06,2.56250000e+00,1.00850000e+02,1.96625000e+01,1.83250000e+01,1.51312500e+00
-5.97128000e-06,2.28750000e+00,1.00750000e+02,1.96625000e+01,1.83375000e+01,1.51125000e+00
-5.97096000e-06,2.60000000e+00,1.00250000e+02,1.96000000e+01,1.82125000e+01,1.50968750e+00
-5.97064000e-06,2.18750000e+00,1.00750000e+02,1.95125000e+01,1.82375000e+01,1.50875000e+00
-5.97032000e-06,2.12500000e+00,1.00250000e+02,1.95875000e+01,1.82000000e+01,1.50812500e+00
-5.97000000e-06,2.67500000e+00,1.00850000e+02,1.96875000e+01,1.82625000e+01,1.50812500e+00
-5.96968000e-06,2.05000000e+00,1.00500000e+02,1.97125000e+01,1.82000000e+01,1.50875000e+00
-5.96936000e-06,2.80000000e+00,1.00700000e+02,1.96875000e+01,1.81875000e+01,1.51000000e+00
-5.96904000e-06,2.42500000e+00,1.00700000e+02,1.95375000e+01,1.83000000e+01,1.51125000e+00
-5.96872000e-06,2.02500000e+00,1.00850000e+02,1.96500000e+01,1.84250000e+01,1.51250000e+00
-5.96840000e-06,2.58750000e+00,1.00100000e+02,1.96625000e+01,1.82625000e+01,1.51343750e+00
-5.96808000e-06,2.63750000e+00,1.00150000e+02,1.97000000e+01,1.82375000e+01,1.51406250e+00
-5.96776000e-06,2.12500000e+00,1.00600000e+02,1.96375000e+01,1.82375000e+01,1.51406250e+00
-5.96744000e-06,2.37500000e+00,1.00500000e+02,1.96250000e+01,1.82375000e+01,1.51375000e+00
-5.96712000e-06,2.16250000e+00,1.00550000e+02,1.95875000e+01,1.80375000e+01,1.51281250e+00
-5.96680000e-06,2.13750000e+00,1.00500000e+02,1.95750000e+01,1.82250000e+01,1.51187500e+00
-5.96648000e-06,2.73750000e+00,1.00450000e+02,1.97375000e+01,1.83375000e+01,1.51093750e+00
-5.96616000e-06,2.42500000e+00,1.01000000e+02,1.96250000e+01,1.81625000e+01,1.50968750e+00
-5.96584000e-06,2.12500000e+00,1.00800000e+02,1.95750000e+01,1.81250000e+01,1.50906250e+00
-5.96552000e-06,2.22500000e+00,1.00450000e+02,1.97000000e+01,1.82750000e+01,1.50843750e+00
-5.96520000e-06,2.52500000e+00,1.01050000e+02,1.96125000e+01,1.82375000e+01,1.50781250e+00
-5.96488000e-06,2.42500000e+00,1.00750000e+02,1.96125000e+01,1.81375000e+01,1.50750000e+00
-5.96456000e-06,2.27500000e+00,1.00400000e+02,1.96500000e+01,1.82250000e+01,1.50718750e+00
-5.96424000e-06,2.52500000e+00,1.00750000e+02,1.96750000e+01,1.81500000e+01,1.50718750e+00
-5.96392000e-06,2.32500000e+00,1.00900000e+02,1.96375000e+01,1.82875000e+01,1.50718750e+00
-5.96360000e-06,2.22500000e+00,1.00900000e+02,1.96500000e+01,1.83750000e+01,1.50718750e+00
-5.96328000e-06,2.12500000e+00,1.00400000e+02,1.95000000e+01,1.81625000e+01,1.50781250e+00
-5.96296000e-06,2.07500000e+00,1.00750000e+02,1.95625000e+01,1.82000000e+01,1.50812500e+00
-5.96264000e-06,2.02500000e+00,1.00350000e+02,1.97000000e+01,1.82625000e+01,1.50906250e+00
-5.96232000e-06,2.57500000e+00,1.00700000e+02,1.96375000e+01,1.82750000e+01,1.51000000e+00
-5.96200000e-06,2.27500000e+00,1.00750000e+02,1.95375000e+01,1.82750000e+01,1.51156250e+00
-5.96168000e-06,2.57500000e+00,1.00700000e+02,1.96250000e+01,1.83500000e+01,1.51312500e+00
-5.96136000e-06,2.02500000e+00,1.00300000e+02,1.97125000e+01,1.83375000e+01,1.51500000e+00
-5.96104000e-06,2.57500000e+00,1.00750000e+02,1.96500000e+01,1.81875000e+01,1.51687500e+00
-5.96072000e-06,2.30000000e+00,1.00250000e+02,1.96000000e+01,1.83000000e+01,1.51875000e+00
-5.96040000e-06,2.81250000e+00,1.00700000e+02,1.96250000e+01,1.83375000e+01,1.52000000e+00
-5.96008000e-06,2.93750000e+00,1.00400000e+02,1.97000000e+01,1.82375000e+01,1.52093750e+00
-5.95976000e-06,2.46250000e+00,1.00650000e+02,1.96250000e+01,1.82875000e+01,1.52125000e+00
-5.95944000e-06,2.53750000e+00,1.00850000e+02,1.97250000e+01,1.83375000e+01,1.52093750e+00
-5.95912000e-06,2.33750000e+00,1.00300000e+02,1.96875000e+01,1.81875000e+01,1.52062500e+00
-5.95880000e-06,1.97500000e+00,1.00500000e+02,1.95750000e+01,1.81250000e+01,1.51968750e+00
-5.95848000e-06,2.17500000e+00,1.00150000e+02,1.95625000e+01,1.82875000e+01,1.51875000e+00
-5.95816000e-06,2.22500000e+00,1.00250000e+02,1.95750000e+01,1.83000000e+01,1.51843750e+00
-5.95784000e-06,2.12500000e+00,1.00850000e+02,1.97125000e+01,1.83250000e+01,1.51812500e+00
-5.95752000e-06,2.18750000e+00,1.00650000e+02,1.96125000e+01,1.83125000e+01,1.51875000e+00
-5.95720000e-06,2.38750000e+00,1.00900000e+02,1.95625000e+01,1.80875000e+01,1.51937500e+00
-5.95688000e-06,2.37500000e+00,1.00800000e+02,1.97000000e+01,1.82250000e+01,1.52031250e+00
-5.95656000e-06,2.22500000e+00,1.00050000e+02,1.97125000e+01,1.83125000e+01,1.52125000e+00
-5.95624000e-06,2.43750000e+00,1.00950000e+02,1.97125000e+01,1.82750000e+01,1.52187500e+00
-5.95592000e-06,2.03750000e+00,1.00900000e+02,1.97250000e+01,1.82875000e+01,1.52187500e+00
-5.95560000e-06,2.37500000e+00,1.00350000e+02,1.95750000e+01,1.82125000e+01,1.52125000e+00
-5.95528000e-06,2.22500000e+00,1.00300000e+02,1.96750000e+01,1.84750000e+01,1.52000000e+00
-5.95496000e-06,2.25000000e+00,1.00650000e+02,1.95750000e+01,1.82375000e+01,1.51843750e+00
-5.95464000e-06,2.80000000e+00,1.00400000e+02,1.95875000e+01,1.82750000e+01,1.51687500e+00
-5.95432000e-06,2.37500000e+00,1.00300000e+02,1.95500000e+01,1.81750000e+01,1.51531250e+00
-5.95400000e-06,2.62500000e+00,1.00500000e+02,1.96250000e+01,1.82875000e+01,1.51375000e+00
-5.95368000e-06,2.63750000e+00,1.00500000e+02,1.96625000e+01,1.83375000e+01,1.51312500e+00
-5.95336000e-06,2.53750000e+00,1.00200000e+02,1.96375000e+01,1.82875000e+01,1.51250000e+00
-5.95304000e-06,2.32500000e+00,1.00400000e+02,1.95875000e+01,1.82125000e+01,1.51281250e+00
-5.95272000e-06,2.37500000e+00,1.00750000e+02,1.96000000e+01,1.83375000e+01,1.51312500e+00
-5.95240000e-06,2.45000000e+00,1.00600000e+02,1.95875000e+01,1.81500000e+01,1.51375000e+00
-5.95208000e-06,2.76250000e+00,1.00650000e+02,1.95875000e+01,1.83125000e+01,1.51406250e+00
-5.95176000e-06,2.78750000e+00,1.00850000e+02,1.95750000e+01,1.83125000e+01,1.51437500e+00
-5.95144000e-06,2.56250000e+00,1.00400000e+02,1.96000000e+01,1.83000000e+01,1.51437500e+00
-5.95112000e-06,2.20000000e+00,1.00400000e+02,1.96250000e+01,1.81250000e+01,1.51406250e+00
-5.95080000e-06,2.67500000e+00,1.01000000e+02,1.96875000e+01,1.81750000e+01,1.51375000e+00
-5.95048000e-06,2.76250000e+00,1.00000000e+02,1.96875000e+01,1.83125000e+01,1.51312500e+00
-5.95016000e-06,2.72500000e+00,1.00650000e+02,1.96375000e+01,1.82875000e+01,1.51343750e+00
-5.94984000e-06,2.25000000e+00,1.00550000e+02,1.96250000e+01,1.83250000e+01,1.51343750e+00
-5.94952000e-06,3.13750000e+00,1.00900000e+02,1.95250000e+01,1.82250000e+01,1.51406250e+00
-5.94920000e-06,3.10000000e+00,1.00850000e+02,1.96000000e+01,1.82750000e+01,1.51500000e+00
-5.94888000e-06,1.82500000e+00,1.00350000e+02,1.98125000e+01,1.84375000e+01,1.51625000e+00
-5.94856000e-06,2.08750000e+00,1.00550000e+02,1.96500000e+01,1.82500000e+01,1.51781250e+00
-5.94824000e-06,2.50000000e+00,1.00350000e+02,1.97125000e+01,1.82625000e+01,1.51968750e+00
-5.94792000e-06,2.60000000e+00,1.00400000e+02,1.96250000e+01,1.83250000e+01,1.52125000e+00
-5.94760000e-06,2.88750000e+00,1.00850000e+02,1.96250000e+01,1.84250000e+01,1.52250000e+00
-5.94728000e-06,2.37500000e+00,1.00300000e+02,1.96875000e+01,1.81500000e+01,1.52343750e+00
-5.94696000e-06,2.75000000e+00,1.00250000e+02,1.96375000e+01,1.81375000e+01,1.52406250e+00
-5.94664000e-06,2.10000000e+00,1.00900000e+02,1.96375000e+01,1.82375000e+01,1.52406250e+00
-5.94632000e-06,2.78750000e+00,1.00500000e+02,1.95875000e+01,1.84125000e+01,1.52343750e+00
-5.94600000e-06,1.85000000e+00,1.00650000e+02,1.95625000e+01,1.82375000e+01,1.52218750e+00
-5.94568000e-06,2.62500000e+00,1.00100000e+02,1.96250000e+01,1.83000000e+01,1.52062500e+00
-5.94536000e-06,1.92500000e+00,1.00450000e+02,1.96375000e+01,1.82375000e+01,1.51906250e+00
-5.94504000e-06,2.50000000e+00,1.00850000e+02,1.96625000e+01,1.83500000e+01,1.51718750e+00
-5.94472000e-06,2.85000000e+00,1.00350000e+02,1.97125000e+01,1.83000000e+01,1.51531250e+00
-5.94440000e-06,2.62500000e+00,1.01000000e+02,1.96000000e+01,1.84000000e+01,1.51375000e+00
-5.94408000e-06,2.17500000e+00,1.00800000e+02,1.95625000e+01,1.82500000e+01,1.51218750e+00
-5.94376000e-06,2.48750000e+00,1.00400000e+02,1.96500000e+01,1.82375000e+01,1.51125000e+00
-5.94344000e-06,2.55000000e+00,1.00750000e+02,1.95875000e+01,1.82750000e+01,1.51031250e+00
-5.94312000e-06,2.73750000e+00,1.00450000e+02,1.97375000e+01,1.82625000e+01,1.51031250e+00
-5.94280000e-06,2.25000000e+00,1.00700000e+02,1.96375000e+01,1.82750000e+01,1.51031250e+00
-5.94248000e-06,3.10000000e+00,1.00850000e+02,1.95625000e+01,1.83250000e+01,1.51062500e+00
-5.94216000e-06,2.62500000e+00,1.00500000e+02,1.96125000e+01,1.83500000e+01,1.51093750e+00
-5.94184000e-06,1.85000000e+00,1.00400000e+02,1.97375000e+01,1.84375000e+01,1.51156250e+00
-5.94152000e-06,2.53750000e+00,1.00550000e+02,1.96500000e+01,1.83000000e+01,1.51187500e+00
-5.94120000e-06,2.38750000e+00,1.00850000e+02,1.96125000e+01,1.82125000e+01,1.51218750e+00
-5.94088000e-06,2.37500000e+00,1.00500000e+02,1.95625000e+01,1.83375000e+01,1.51218750e+00
-5.94056000e-06,2.17500000e+00,1.00600000e+02,1.97500000e+01,1.83125000e+01,1.51218750e+00
-5.94024000e-06,1.97500000e+00,1.00450000e+02,1.97250000e+01,1.83250000e+01,1.51187500e+00
-5.93992000e-06,1.97500000e+00,1.00900000e+02,1.95750000e+01,1.83375000e+01,1.51125000e+00
-5.93960000e-06,1.80000000e+00,1.00650000e+02,1.96000000e+01,1.83625000e+01,1.51062500e+00
-5.93928000e-06,2.27500000e+00,1.01150000e+02,1.96750000e+01,1.83750000e+01,1.51000000e+00
-5.93896000e-06,2.67500000e+00,1.00850000e+02,1.97000000e+01,1.84125000e+01,1.50937500e+00
-5.93864000e-06,2.42500000e+00,1.00650000e+02,1.97875000e+01,1.81750000e+01,1.50875000e+00
-5.93832000e-06,2.02500000e+00,1.00550000e+02,1.97375000e+01,1.82500000e+01,1.50843750e+00
-5.93800000e-06,1.96250000e+00,1.00250000e+02,1.96500000e+01,1.82875000e+01,1.50875000e+00
-5.93768000e-06,2.08750000e+00,1.00400000e+02,1.97000000e+01,1.82500000e+01,1.50906250e+00
-5.93736000e-06,2.78750000e+00,1.00800000e+02,1.96375000e+01,1.82875000e+01,1.50968750e+00
-5.93704000e-06,2.22500000e+00,1.00700000e+02,1.95125000e+01,1.83625000e+01,1.51062500e+00
-5.93672000e-06,2.17500000e+00,1.00700000e+02,1.96250000e+01,1.82375000e+01,1.51218750e+00
-5.93640000e-06,2.62500000e+00,1.00900000e+02,1.97500000e+01,1.81875000e+01,1.51375000e+00
-5.93608000e-06,2.22500000e+00,1.00750000e+02,1.97125000e+01,1.81750000e+01,1.51531250e+00
-5.93576000e-06,2.07500000e+00,1.01250000e+02,1.96000000e+01,1.81000000e+01,1.51718750e+00
-5.93544000e-06,2.26250000e+00,1.00250000e+02,1.95750000e+01,1.83750000e+01,1.51843750e+00
-5.93512000e-06,1.86250000e+00,1.00600000e+02,1.96000000e+01,1.83625000e+01,1.51937500e+00
-5.93480000e-06,2.73750000e+00,1.00700000e+02,1.95375000e+01,1.83250000e+01,1.52000000e+00
-5.93448000e-06,2.22500000e+00,1.00700000e+02,1.95000000e+01,1.83625000e+01,1.52062500e+00
-5.93416000e-06,2.07500000e+00,1.01250000e+02,1.97000000e+01,1.84375000e+01,1.52062500e+00
-5.93384000e-06,2.52500000e+00,1.01400000e+02,1.96750000e+01,1.83750000e+01,1.52031250e+00
